<svg width="330" height="450" viewBox="0 0 330 450" fill="none" xmlns="http://www.w3.org/2000/svg">
<path d="M8.8 59.14L10.42 58.66L11.92 58.54L12.92 58.36L15.08 57.76L16.08 57.46L16.92 57.16L17.92 56.98L19.24 56.68L20.56 56.38L21.22 56.02L22.06 55.48L23.26 55.36L24.04 54.94L25.24 54.4L26.44 53.68L26.98 53.2L28.54 52.6L28.9 52.06L29.9 51.64L31.1 50.86L31.64 50.2L32.42 49.6L32.18 48.76L31.18 48.28L30.18 47.8L29.28 47.62L28.56 47.02L27.24 46.72L26.1 46.36L25.2 46L23.88 45.76L22.88 45.34L21.7 45L20.7 44.76L19.44 44.46L18.12 45.06L17.12 46.5L16.52 46.38L16.58 46.08L17.3 44.64L17.5 44L18.34 42.86L19 42L18.94 41L19.94 40L20.54 39.22L20.6 38.14L21.2 37.24L21.86 36.52L22.4 35.68L23 34.6L23.6 33.7L23.78 32.7L24.5 31.7L24.86 30.8L25.52 30.08L25.1 28.94L23.66 28.88L22.6 29L21.46 29.06L20.62 29H19.36L18.36 29.12L17.2 29H15.28L14.62 29.06L13.24 28.9L12.46 29L10.84 28.88L9.7 28.9L9 29H6.76L5.86 29.06L4 29L4.48 28.1L5.56 27.98L6.64 28.1L7.9 27.86H9L9.78 27.98L11.1 27.86L12.48 28.1L13.08 27.98L14.28 27.92H15.4L16.72 28.1H19.3L20.14 27.92H21.34L22.18 28.04L23.62 28.1L24.16 27.86L25.24 27.98L27.34 26.9L27.52 25.9L28.06 24.82L28.9 23.74L29.44 22.96L30 21.82L30.12 20.82L31.02 19.82L31.14 18.98L32.14 17.6L32.56 17.84L32.38 19.16L31.78 20L31.54 21L30.7 21.72L30.52 23L29.68 23.84L29.62 25L29.08 25.78L28.6 26.92L29.08 27.92L30.34 27.74L31.48 27.92L31.9 27.86L34.24 27.74H35.24L36.8 27.8L37.7 27.98L38.54 27.8L40.16 27.98L41.06 27.74L42.26 27.86L42.92 28.04L44 27.94L45 28.06L46.14 27.88L48.3 28L49.38 27.82H50.38L51.64 27.88H52.78L54.1 28.06L55 27.82L56.14 27.76H57.52L59.2 27.94L61 28.24L60.88 28.78L59.86 29L58.48 28.88L57.7 29.18L56.32 29L55.42 28.82L54.42 29.12H52.42L51 28.84L50.22 28.9H48.94L47.56 29L46.72 29.84L46.66 30.84L46 31.84L45.52 32.84L45.64 33.68L44.74 35L44.86 35.72L43.86 36.72L43.6 38L43.12 38.9L42.34 39.74V40.64L41.2 41.64L41.14 42.64L40.3 43.64L39.16 44.48L38.86 45.38L37.96 46.1L37.12 46.94L36.58 47.84L36.82 49L37.6 49.36L38.32 49.72L39.64 50.14L40.36 50.8L41.86 51.04L42.46 51.46L43.72 51.94L44.8 52.42L45.4 53.02L46.6 53.2L47.08 53.98L48.08 54.52L49.7 54.88L50.54 55.54L50.84 56.02L52.16 56.8L53 57.34L53.9 57.94L54.2 59.14L53.84 59.56L53.54 59.44L52.82 58.9L52.4 58.06L51.14 57.34L50.54 56.86L49.46 56.38L48.68 55.84L47.48 55.06L46.7 54.76L45.56 54.34L44.78 53.62L43.78 53.26L42.78 52.84L41.52 52.42L40.44 51.76L39.54 51.4L38.44 51L38 50.56L36.92 50.44L35.92 49.78L33.76 50.08L32.68 50.86L32.44 51.34L31.6 52.34L30.28 52.88L29.28 53.54L28.28 53.96L27.68 54.32L26.84 54.98L25.76 55.34L24.44 55.76L23.66 56.42L22.52 56.9L21.8 56.96L20.48 57.44L19.48 57.68L18.16 58.22L17.38 58.58L16.38 58.82L15.48 58.94L14.4 59.24L13.14 59.3L11.88 59.6L10.88 59.72L9.56 59.96L8.8 59.14ZM51.8 20.08L53.2 18.7L54.1 18.04L54.34 17.04L55.54 16.32L56.32 15.54L57.04 14.64L57.88 13.98L57.1 13.14L56.5 13.08L54.88 13.38L54.34 13.14H52.66L51.82 13.08L50.68 13.32H49.36L48.36 13.08L47.82 13.14L46.5 13.32L45.42 13.2L44.22 13.14L42.06 13.38H41L39.92 13.2H39L37.74 13.38L36.96 13.32L35.4 13.14L34.32 13.2L33.12 13.38L32 13.24L31.34 13.36H30L29.16 13.3L28.32 13.36L26.58 13.18L25.58 13.06L24.68 13.36L23.48 13.3L22.48 13.06L21.28 13.12L20.68 13.18L19.3 13.12L18.3 13.24L17 13.3L16.16 13.36L14.78 13.12L14.24 13.3L12.76 13.12H12L10.3 13.06L9.82 14.2V15.28L9.22 16.66L9.34 17.74L9 18.58L8.22 19.78L8 20.56L7.34 21.46L6 22.24H5.56L5.38 21.64L6.1 20.44L7.18 19.54L7.78 18.7V17.62L8 16.42L8.42 15.52L8.84 14.44L8.38 13.18L8.56 12.18L8.74 10.6L9 10.3L9.3 11.3L10.62 12.2L11.8 12.16L12.58 12.28L13.78 12L14.98 12.24H16.12L16.72 12L18 12.22L19 12.28H20.44L21 12H22.3L23.3 12.18L24.86 12.24L25.9 12.1L26.32 12.16L27.4 12.22H28.84L29.84 12.04L30.84 12.16L31.72 11L32.08 10L32 8.74L32.18 7.54L31.82 6.54L32.18 5.4L32.38 4H32.74V5.5L33.22 6.5L33 7.84L33.28 9L33.1 10L33.22 11L33.82 12.14L35.32 12.08L36.16 12.2L37.6 12L38.68 12.24L39.4 12L40.54 12.12H41.54L43.24 12L43.96 12.24L45.22 12L47.22 12.24L48.12 11.94L49.26 12.18L50.46 12.06L51.96 12.18H53.58L55.14 12.24L56.5 12.1H57.16L59.56 11.86L60.28 11.44L60.82 11.86L60 13.24L59.28 14.14L58.08 14.8L57.3 15.46L56.64 16.3L56.2 17L55.2 18.08L54.9 18.86L54.12 19.34L52.78 20.5L52.72 20.26L51.8 20.08ZM36 46.9L37 46L37.6 45.28L38.44 44.38L38.68 43.54L39.4 42.54L40.4 41.7L41.18 40.8L41.24 39.8L41.96 39.14L42.62 38.14L43.16 36.94L43.76 36.16L44.12 35.26L44.38 34L44.2 33.22L44.86 32.22L45.28 31L45.76 29.86L44.26 29L43.48 29.06L42.64 29H39.52L37 29.08H36.1L35.2 29L33.82 28.82L32.44 29.06L31.84 28.82L30.76 28.88H29.38L28.54 29.06L27 30L26.22 30.84L25.74 31.84L25.44 32.84L24.36 33.84L23.88 34.84L23.64 35.44L22.74 36.44L22.62 37.44L22.2 38.52L21.42 39.52L21.12 40.52L20.04 41.52L19.8 42.42L19.68 43.42L20.94 43.78L21.84 44.02L22.92 44.5L24.3 44.86L24.78 44.98L26.1 45.28L26.88 45.76L28.08 46.18L29.16 46.3L30.48 46.9L31.08 47.32L32.52 47.5L33.36 47.98L35.28 47.56L36 46.9Z" fill="black"/>
<path d="M72.6399 53.4396L73.6399 52.6596L74.7999 51.9996L75.3999 51.3396L76.8999 50.9996L77.3799 50.3396L78.6999 48.6596L78.8199 47.6596L78.8799 46.5796V44.5796L78.5199 43.3796L78.6399 42.3796L78.6999 41.2996L78.7599 40.2996L78.8199 39.0996L78.5199 37.9596L78.8199 36.9596L78.9999 35.6196L78.3399 34.8396L78.6399 33.5796V32.5796L78.9399 31.3796L78.3399 30.5996L78.7599 29.2796L78.3399 28.2796L78.3999 27.1396L78.6399 26.1396L78.5799 24.9996L78.6999 23.7396L78.6399 22.9996L78.9999 21.7996L78.8199 20.7996L78.4599 19.5396V18.4596L78.6999 17.6796L78.5799 16.4196L78.7599 15.2196L78.6999 14.3196L78.9399 13.1196V11.9996L78.8799 11.2196L78.9399 10.0196L78.9999 8.99957L78.8199 7.37957L79.2999 7.61957L79.9999 8.99957L79.5999 10.1196L79.8999 11.1996L79.4199 12.1996L79.7199 13.5196L80.0199 14.5196L79.4199 15.5996L79.7199 16.6796L79.5399 17.5796L79.7199 18.7796L79.9999 19.8996L79.4599 20.7996L79.7599 21.9396L79.9399 23.1996L79.5199 24.0996L79.9999 25.1796L79.5199 26.1796L79.9399 27.4996L79.9999 28.5996L79.8199 29.4396V30.7596L79.9399 31.6596L79.6399 32.6596L79.3999 33.9196L79.5799 34.9196L80.0799 35.9996L79.5999 37.1396L79.8399 38.2196V39.4196L79.9999 40.4796L79.8799 41.3796L79.9999 42.5196L79.7599 43.8396L79.4199 44.9996L79.8399 45.7796L79.9999 47.1396L79.8199 47.9796L80.7199 48.5196L81.7199 47.9196L82.8599 47.4396L83.8599 46.9596L84.6999 46.2996L85.2999 45.7596L86.7399 45.3396L87.5799 44.8596L88.7199 44.1396L89.1999 43.7796L90.1999 43.4196L91.4599 42.6996L91.9399 42.1596L92.9399 41.7396L96.1199 40.0596L97.2599 39.5196L97.9999 39.0996L99.1399 38.3796L100.04 37.6596L100.7 38.3196L99.7999 39.5196L98.8999 39.9396L97.8999 40.2996L96.8999 40.9596L95.5799 41.3796L94.9999 41.7996L93.7999 42.3396L93.2599 42.9996L91.9999 43.7196L90.7399 44.0196L90.4399 44.7396L89.2999 45.1596L87.9199 45.4596L87.0799 46.1196L86.5999 46.5996L85.5199 47.1996L84.5199 47.8596L83.3799 48.3996L82.5999 48.6396L81.5999 49.4196L81.0599 49.8396L79.9999 50.4996L79.0999 50.7996L77.9999 51.2796L77.3399 52.0596L76.1999 52.4796L75.2999 53.0196L73.9999 53.4396L73.1599 54.2196L72.9199 54.0996L72.6399 53.4396ZM91.9999 60.0996L92.0599 59.5596L92.2999 59.0196L93.4999 58.8396L94.2799 58.5996L94.9999 58.1196L95.6599 57.7596L96.9999 56.9996L97.5399 56.8196L98.5399 56.1596L99.9199 55.4396L100.22 55.0196L101.36 54.2996L102.26 53.6996L102.86 53.0996L104.06 52.1996L105.06 51.3596L105.66 50.8196L106.26 49.9796L107.58 49.1996L107.7 48.4796L108.9 47.6996L109.74 46.4996L110.4 45.6596L110.58 44.9396L111.36 43.9396L111.66 43.0396L112.66 41.9596L112.6 41.1196L113.2 39.7996L113.5 38.9596L113.86 37.9596L114.22 36.8796L114.4 35.6796L115.24 34.6796L115.42 33.6796L115.78 32.5996L116.02 31.4596L115.66 30.3796L115.72 29.0596L116.14 27.8596L116.32 26.7796L116.14 24.7796L116.08 23.6396L116.26 22.5596L116.32 21.4796L116.26 20.3996L115.78 19.2596L116.14 18.1796L116.38 17.0996L116 15.7596L115.7 14.8596L116.06 13.7796L115.82 12.5196V11.4396L116.24 10.2996L116.12 9.29957L116.38 7.99957L116.14 6.79957L117.14 6.55957L117.5 8.11957L117.38 9.19957L117 10.2396V11.5596L117.3 12.5596L117.42 13.6996L116.82 14.6996L117.3 15.8996L117 17.0996L117.48 17.9996L117.12 19.2596L117.48 20.3996L116.82 21.5396L117.18 22.4396L117.36 23.6396L117.18 24.7796L117.3 26.7796L116.86 27.9996L116.8 29.1396L116.62 30.1396L116.44 31.2196L116.32 32.3596L116.38 33.1396L116.32 34.2196L116.02 35.2196L115.9 36.4796L115.24 37.6196L114.7 38.6196L114.76 39.4596L114.22 40.2996L113.92 41.4396L113.32 42.2196L113.8 43.9996L114.22 44.5396L115.3 45.1996L116.08 45.8596L116.86 46.6996L117.86 47.6996L118.52 48.3596L119.66 49.0196L120.66 49.7396L121.38 50.5196L122.04 51.5196L122.64 52.3596L123.24 53.2596L123.84 54.1596L124.68 54.9996L124.48 55.9996L124.96 57.3196L124.18 57.5596L123.64 55.8796L123.52 55.1596L123 53.9996L122.34 53.3996L121.62 52.1996L120.9 51.6596L120 50.7596L119.28 50.0396L118.5 49.0396L117.06 48.2596L116.64 47.5396L115.98 46.8196L114.72 46.3996L114 45.6996L113.34 44.6996L111.84 45.1196L111.06 45.8996L110.52 46.7396L109.92 47.7396L109.08 48.4596L108.66 49.5996L107.66 50.2596L106.76 50.9796L106.34 51.8796L105.14 52.6596L104.42 53.3796L104 53.9996L102.92 54.6596L101.92 55.1396L101.2 55.6796L100.54 56.5196L99.2799 57.0596L98.6799 57.3596L97.5399 57.8996L96.8199 58.4996L95.0799 58.9996L94.1799 59.4796L93.1799 59.7796L92.0399 60.3196L91.9999 60.0996ZM101 22.9996L100.82 21.7396L99.9799 20.7396L99.2799 19.9996L99.2199 18.9996L97.9999 18.2196L97.7599 17.3796L97.0999 16.2996L95.9999 15.5196L95.4599 14.7996L94.2599 14.0796L93.8999 13.3596L92.3999 12.2796L92.8799 11.6196L93.8799 12.4596L94.7799 13.0596L95.8599 13.7796L96.6999 14.7796L97.1799 15.4996L98.1799 16.3996L98.8399 17.3996L99.3799 18.1796L100.16 18.8996L101.16 19.8996L101.34 20.8996L101.7 22.1596L102.36 22.9396L102.24 24.5596L101.24 24.4396L101 22.9996Z" fill="black"/>
<path d="M160.78 59.2596V58.5996L158.5 56.8596L157.5 56.6796L156.3 56.0196L155.4 55.3596V54.6396L157.14 54.8796L158.28 55.4196L159 55.7196L160.2 56.3796L160.74 57.0996L161.46 57.9396L162.54 58.0596L162.48 57.1596L162.9 55.9596L163.32 55.1196L163.62 53.8596L163.56 53.0196L163.5 51.8196L163.44 49.5996L163.74 48.5996L163.44 47.7596L163.32 46.4396L163.62 45.2996L163.8 44.4596V43.2996L163.5 42.0396L163.8 41.2596L163.42 39.9996L162.42 39.0996L161.52 39.0396H160.52L159.38 38.7996H158.38L157.06 39.0996L155.98 38.8596H154.84L153.58 39.0396L152.58 38.8596L151.68 38.7996L150.6 39.0396L148.38 38.7996L147.38 39.0996L146.66 38.7996H144.26L143.54 39.0396L141.88 38.9996L141.1 38.8796L140.1 39.1196L139.26 38.9396L138.18 38.8196L136.5 38.8796L136.2 37.9796L137.7 37.7996L138.7 37.7396L140.14 37.9796L141.22 37.7996L142.22 37.9196L143.36 37.7396L144.44 37.8596L145.1 37.9796L146.66 38.0396L147.86 37.9196L149.78 38.0396L150.78 37.9196L151.92 38.0396L153 37.7996L154 37.9796L155.38 37.7996H156.38L157.1 37.9196L158.18 37.8596L159.38 37.7396L160.46 38.0396L161.36 37.9196L162.62 37.9796L163.62 36.7196L163.26 35.8196V34.6596L163.74 33.5796L163.32 32.5796L163.62 31.3796L163.8 30.4796L163.74 29.3996L163.5 28.3996L163.74 27.1396L162.1 25.9996L161.2 26.1796L159.94 26.2396L159 25.9996H158L157.28 26.2396L156 25.9996L154.5 26.2996H153.72L152.58 26.1196L151.38 26.2996L150.48 26.1196H149.7L147.96 26.1796L146.96 25.9396L146.54 25.3396L148.54 25.0996L149.08 24.9196L150.22 25.1596L151.3 25.0996H152.3L153.74 24.9796L154.34 25.2196H155.84L156.68 24.9796H157.88L158.78 25.0996L160.28 24.9196L160.94 25.2196L162.2 24.9196L163.58 24.9796L164 24.9196L165.32 25.0996L166.32 25.1596L167.76 25.0396L168.54 24.9196H169.38L170.88 25.1596L172.02 25.0996L172.62 25.1596L174.18 24.9196L174.96 25.2196L176.34 24.9796H177.24L178.44 25.0996H179.82L179.4 26.0996H178.02L177 25.9996L175.8 26.1196L175.32 26.1796L173.82 26.1196L172.68 26.1796L172.14 26.2396L170.82 26.1796L169.82 26.2396L168.92 26.1796H167.92L166.54 26.0596L165.82 26.2396L164.5 27.2396L164.38 28.2396L164.68 29.3796L164.44 30.5196V31.5996L164.32 32.6796L164.26 33.6796L164.8 34.6796L164.32 35.6796L164.86 36.7596L165.4 37.9596L166.9 37.7196L167.68 37.9596L168.68 37.7796L169.68 37.8996L171.36 38.0196L171.96 37.7196L172.96 37.7796L174.28 37.7196L175.6 37.9596L176.32 37.8396L177.52 37.9596L180.04 37.8396L180.46 38.0196L181.6 37.7796H184.36L184.96 37.8996L186.52 37.7196L187.42 37.8996H189.76L190.42 37.9596L191.74 38.0796L192.16 38.6196L190.3 39.0396L189.46 38.9196L188.68 38.8596L187.6 38.9196L186.28 38.9796L185.2 38.7996L183.88 39.0396L182.88 38.9196L181.88 38.8596L180.68 38.9796L179.54 38.7996L178.34 38.8596L177.14 38.9796H176.24L175.4 38.7996L173.96 38.9196L172.9 38.9996L172.3 39.0596L171 38.9996L170.1 39.0596L169 38.7996L168 38.8596H166.9L165.9 38.9196L164.46 40.1196L164.52 41.2596L164.7 42.1596L164.64 43.1596L164.76 44.2396L164.22 45.5596L164.58 46.6996L164.64 47.6996L164.16 48.6996L164.52 49.6996L164.4 51.9796V52.9996L164 53.9996V55.2596L163.76 56.1596L163.88 57.4796L163.04 58.4796L162.92 59.4796L162.56 60.4796L161.96 61.3196L161.42 61.1996L160.78 59.2596ZM182.2 21.0996L183.2 19.8996L184.28 19.1196L184.94 18.3396L185.6 17.6796L186.02 16.7796L186.92 16.1196L187.92 15.3996L187.44 14.3996H186.18L185.46 14.5196L184.38 14.4596L183.24 14.2796L181.62 14.5796L180.48 14.3996L180 14.5796H177.3L176.7 14.2796L175.26 14.4596L174.42 14.2796L173.42 14.5196L172.04 14.3996L171.38 14.5796H169.9L168.76 14.5196L167.5 14.3396H166.9L165.64 14.2796L164.74 14.3396L163.74 14.2796H162.1L161.56 14.5796L160 14.2796L159.34 14.4596L157.9 14.2796L156.9 14.5796L156.24 14.5196L154.86 14.5796L153.86 14.4596H152.78L151.34 14.2796L150.5 14.5196L149.72 14.4596H148.16L147.02 14.5196L146.02 14.2796L145.18 14.4596L143.98 14.3396L142.78 14.5196L141.64 15.4196L141.28 16.4996L141.76 17.4996L141.4 18.7596L140.92 19.5396L140.62 20.5396L140.26 21.6796L140.02 22.6796L139.36 23.5196L138.16 24.5996V24.5396L137.44 23.9996L138.44 22.6796L138.98 21.5996L139.88 20.8196L140.24 19.4996L140.36 18.4196L140.48 17.5796L140.72 16.3196L140.9 15.3196V13.8996L140.66 12.8196L140.96 11.2596L141.38 11.4396L142.16 12.4396L142.88 13.4396L143.88 13.3196H145.44L146.1 13.2596L147.54 13.4996L148.14 13.2596L149.52 13.4396L150.24 13.4996L151.86 13.3196L153.36 13.4396H154.5L156 13.5596L157 13.3196L157.54 13.3796H158.62L160.24 13.3196L160.9 13.4996L161.98 13.5596L163.12 12.3596L162.94 11.3596L163.3 10.1596L163.12 9.15961L163.24 8.07961L163.42 6.87961L162.94 5.73961L163.18 4.59961H164.44V5.99961L163.9 6.99961L164.32 8.19961L164.08 9.27961L164 10.3596L164.12 11.3596L163.94 12.3596L165.14 13.3596L166.52 13.2996L167.84 13.4796L168.84 13.5396L169.44 13.2996L171.12 13.3596H172.2L172.8 13.4196L173.88 13.2396L174.88 13.4196L176.68 13.5396H177.34L178.24 13.4796L179.38 13.5396L180.38 13.3596L181.7 13.2396L183.26 13.4196L183.8 13.2996L184.8 13.2396L186.12 13.5396L187.26 13.2396L188.46 13.4796L189.66 13.2396L190.66 12.8796L190.96 13.4196L189.76 14.4996L189.46 15.2796L188.26 16.0596L187.96 16.8396L186.96 17.4996L186.3 18.2796L185.7 19.1196L184.44 20.1196L183.66 20.7196L183.18 21.4996L182.82 21.7396L182.2 21.0996Z" fill="black"/>
<path d="M206.92 24.4597L205.66 23.7997L204.76 23.0197L204.28 22.4197L203.68 21.8197L202.18 20.9197L202.72 20.4997L204.58 21.6397L205.78 21.8797L206.38 22.8797L207.22 23.2997L207.76 23.9597L208.54 24.7997L208.84 26.1197L208.12 26.4197L207.12 25.0997L206.92 24.4597ZM216.92 33.1597L215.84 34.2397L215.54 35.1397L215.36 36.1397L215 36.7997L214.16 37.7997L213.4 38.9997L213.1 39.7197L212.8 40.7997L212.32 41.6397L212 42.8197L211 43.5397L210.34 44.3797L210.22 45.6397L209.44 46.4197L209.5 47.1997L208.42 48.1997L207.82 49.3397L208.66 51.0197L208.84 52.0197L209.26 53.0197L209.74 54.0197L210.22 54.9197L210.28 56.2997L210.82 57.2997L210.4 58.7997L209.32 58.9797L209.74 57.4797L209.08 56.0397L209.32 55.2597L208.54 53.9997L208.3 52.6797L207.46 51.9597L207.34 51.0597L206.44 50.3997L205.36 49.5597L203.74 48.7797L204.4 48.1797L205.96 48.7797L207.46 48.3597L207.88 47.6997L207.94 46.6997L208.94 45.6997L209.06 44.4997L209.66 43.8397L210.26 42.9397L210.5 41.9397L211.5 41.0397L211.62 39.9597L212.22 38.9597L212.52 37.9597L213.3 37.2997L213.72 36.2997L214.32 35.4597L214.74 34.2597L215.1 33.4197L215.82 32.5197L216.36 31.3797L217.44 31.6197L216.92 33.1597ZM209 5.67969L210.68 6.87969L211.52 7.59969L211.7 8.37969L212.42 9.21969L213.68 9.87969L213.86 10.8797L214.64 11.7197L215 13.3597L214.34 13.1797L213.86 11.7997L213 11.0797L211.92 10.0797L211.62 9.29969L210.96 8.57969L210.06 7.79969L208.68 7.19969L207.78 6.19969L209 5.67969ZM241.58 53.3197L242.66 53.4397L243.5 53.4997L244.58 53.4397L245.9 53.6197H247.1L248.42 53.5597L249.56 53.6197L250.7 53.3797L251.3 53.3197L252.86 53.6197L253.7 53.3197L254.54 53.6197L255.86 53.5597L256.7 53.6197L257.7 53.4997H259.32L259.38 54.2797L258.06 54.4597H256.62L255.84 54.2797L255.06 54.4597L253.68 54.2797L252.48 54.3397L251.48 54.5797L250.7 54.3997H248.7L247.5 54.5797L246 54.5197H245.28L244.2 54.3397L243 54.3997L241.8 54.2797H241.02L239.58 54.3997L238.74 54.3397L237.42 54.5197L236.64 54.3397L235.8 54.3997L234.8 54.2797L233.36 54.3397L232.28 54.4597L231.2 54.3397H229.94L228.94 54.4597L228.4 54.5797L226.9 54.3997L225.64 54.5797L224.92 54.2797L223.84 54.3397H222.84L222 54.3997L220.62 54.5197L219.24 54.2797L219.06 53.4397L220.38 53.4997L221.94 53.3797L222.48 53.5597L223.38 53.3197L224.94 53.5597L225.84 53.6197L227.1 53.5597L227.76 53.4397L229.32 53.3197H230.16L231.42 53.5597L232.2 53.6197L233.1 53.5597H234.42L235.02 53.3197L236.02 53.3797H237.7L238.7 52.2997L238.22 51.1597L238.58 50.3197L238.7 48.9997L238.58 48.1597V46.8397L238.64 45.9397L238.7 44.9397L238.58 43.5597V42.5597L238.64 41.4797V39.3397L238.22 38.4997V37.2397L238.58 36.0397L238.76 35.1997L238.46 34.0597L238.52 32.7997L238.4 31.8997V30.8197L238.76 29.4997L238.28 28.4197L238.58 27.5197L238.52 26.3197L238.64 25.1797L238.34 24.1797L238.52 23.0997L238.58 22.0997V19.8997L238.34 18.8197L238.28 17.9197L238.64 16.7797L238.4 15.6997L238.1 14.6197L237.26 13.6197L235.94 13.4397L235.34 13.3197L234.26 13.5597L233.12 13.4397L231.68 13.4997L230.36 13.4397L229.28 13.5597H228.68L227.3 13.4397L226.46 13.5597L224.96 13.6197L222.8 13.2597L222.5 12.7797L223.88 12.4797L225.44 12.5397L226.28 12.6597L227 12.5397L228.5 12.4797L229.1 12.6597L230.54 12.4797L231.74 12.5397L232.82 12.6597L234.14 12.5997L235.04 12.6597L236.18 12.5397H238.46L239.54 12.4197H240.14L241.28 12.4797L242.12 12.5397L243.74 12.3597L244.74 12.4797L245.4 12.5997L246.6 12.6597L248 12.3997L248.84 12.3397H249.98L252.32 12.6397H253.58L254.18 12.5797L256.1 12.7597L255.68 13.3597L254.68 13.4797L253.12 13.5997L252.22 13.4797L251 13.3597L250.1 13.2997L249.44 13.5997L248 13.2997L246.8 13.4197L245.72 13.4797L244.52 13.3597L243.68 13.5397L242.6 13.2997L241.76 13.5997H240.5L239.66 14.5997L239.72 15.4397L239.24 16.5797L239.84 17.6597L239.24 18.7997L239.66 20.0597L239.18 20.9597L239.24 22.2197L239.48 23.2997L239.54 24.0797L239.66 25.2797L239.84 26.4797L239.66 27.5597L239.48 28.6997L239.36 29.7797L239.18 30.7797L239.36 31.7797L239.78 32.8597L239.36 34.0597L239.78 34.8997L239.3 36.1597L239.24 37.0597V38.1997L239.42 39.4597L239.18 40.5997L239.3 41.5997L239.36 42.7397L239.54 43.5797L239.66 44.8397L239.72 45.8397L239.36 47.1597L239.3 47.9997L239.6 49.0797L239.66 50.0797L239.6 51.2797L239.42 52.2797L240.74 53.4797L241.58 53.3197Z" fill="black"/>
<path d="M284.56 15.28H285.64L286.54 15.22L287.38 15.34L288.58 15.46L290.02 15.52L290.8 15.28L292 15.46L293.38 15.22L294.94 15.4L295 16.3L293.5 16.48L292.5 16.18L291 16.3L290 16.42H289.28L287.78 16.36H286.88L285.88 16.24L284.44 16.48L283.36 16.42L282.28 16.18L281.2 16.24L280.3 17.24L280.12 18.44L280.36 19.7L280.18 20.7L280.36 21.78L280.24 22.98L279.94 23.98L279.76 25.06L280.06 26.06L280.72 27.26L282.04 27.14L283.12 27.32L284.32 27.26L285.1 27.38L285.82 27.2L287.32 27.08H288.1L289.48 27.14L290.38 26.9L290.98 26.72L291.34 28.34L291.7 29.34L291.22 30.6L291.46 31.74L291.4 32.58V33.66L291 35L291.42 36.08L291 37L290.76 38L290.64 39L290.94 40.14L290.4 41.34L290.58 42.48L290.4 43.38V44.58L290.28 45.58L290.22 46.72L290.04 47.72L289.56 48.72V49.72L289.5 50.86L288.94 52L288.58 53L288.76 54L288.16 55.2L287.5 56.1L287.62 57.1L286.72 58.3L285.72 59.3L285.24 59.06L285.18 57.62L284.94 56.78L284.16 55.88L282.94 55L280.72 54.16L280.78 53.38L281.92 53.68L282.92 53.92L283.92 54.64L284.82 55.3L286.02 55.84H286.38L286.92 54.84L287.34 54L287.82 52.86L288.24 51.78L288.06 50.88L288.24 49.74L288.72 48.74L288.54 47.54L289.14 46.64L289.38 45.38L289.44 44.24L289.74 43.16L289.26 42.16L289.44 41.16L289.74 40.16L289.68 38.96L289.56 38.06L290.28 36.74L289.92 35.6L289.98 34.6L290.1 33.6L290.4 32.34L290.1 31.44L290.52 30.3V29.3L289.52 28.16L288.44 28.22L287.06 28.1L286.06 28.16L285.28 28.34L284 28.12L282.8 28.24H281.6L280.7 28.36L279.86 29.36L279.38 30.26L279.2 31.58L279.08 32.66L278.9 33.74L279.02 34.88L278.72 35.66L278.36 36.8L278.66 38.06L278.06 39.06L278.24 39.9L277.64 41.28L277.46 42.12L276.98 43.32L276.8 44.4L276.62 45.4L276.74 46.3L275.9 47.44L275.72 48.34L275.06 49.34L274.88 50.34L274.16 51.54L273.92 52.38L273.38 53.38L273.14 54.22L272.84 55.42L271.64 56.42L271.16 57.26L270.74 58.16L269.9 58.88L268.82 59.96L268.76 59.6L269.18 58.4L270 57L270.66 56.1L271.44 55.5L271.32 54.3L272.32 53.52L272.44 52.52L272.86 51.62L273.46 50.62L274.36 49.48L274.18 48.7L275.08 47.62L275.2 46.54V45.64L275.68 44.38L275.98 43.48L276.7 42.48L276.82 41.4L276.88 40.4L277.06 39.14L277.72 38.14L277.42 36.88L278.08 35.98L277.66 34.72L278.02 33.64L278.08 32.86L278.14 31.78L278.74 30.64L278.68 29.38L278.74 28.3L278.92 27.22L278.74 26.32L278.68 25.18L279.22 23.92L279.34 22.92L279.46 21.72V20.72L279.4 19.58L279 18.4L278.88 17.32L277.88 16.18L277.16 16.36H275.8L275.26 16.42L274.18 16.18L272.8 16.3L272.26 16.36L270.58 16.24H270L268.62 16.06L268.74 15.46L270.18 15.34H271.18L272.44 15.4L273.52 15.28L274.66 15.52L275.8 15.4L276.34 15.52L277.66 15.28L278.66 15.34L279.98 15.52L280.76 14.44L281.12 13.06L281.24 12.06L280.94 11.06V10.06L281 8.86L280.88 7.72L281.3 6.72L281.18 5.58L281 4L281.78 4.18L282.14 5.74L282.38 6.88L282.44 7.72L281.74 9V10.06L282.34 11.06L282.16 12.2V13.4L282.28 14.48L283.28 15.38L284.56 15.28ZM325.18 28.84L324.1 27.94L323.1 27.22L322.44 26.38L321.78 25.6L321.06 24.6L320.4 23.82L319.74 23.04L318.74 22.2L318.32 21.3L317.48 20.4L317.24 19.26L316.52 18.66L315.98 17.66L315.56 16.66L315.14 15.66L314.36 14.66L313.82 13.66L313.52 12.94L313.04 11.94L312.44 10.94L312.14 9.8L311.84 8.8L310.94 8.08L310.4 7.78L309.7 9.1V10.1L309.28 11.1L308.86 12L308.26 12.9L307.26 13.9L307.2 14.8L306.2 15.94L305.72 16.66L305.48 17.66L305 18.44L304.46 19.44L303.74 20.44L302.84 21.34L302.48 22.34L301.76 23.12L301.54 24L300.54 24.78L300 25.78L299.28 26.5L298.62 27.34L297.72 28.24L297 29L296.22 30.08L295.62 29.78L296.1 28.52L296.94 27.62L298.14 26.84L298.68 25.84L298.86 25L299.86 24.16L300.7 23.32L301.12 22.42L302.02 21.42L302.38 20.34L303.1 19.68L303.22 18.54L304.22 17.54L304.94 16.88L305.48 15.74L305.72 14.66L306.14 13.66L306.68 12.82L307.46 11.92L307.64 10.92L308.06 10.02L308.84 9.12L309 8.08L309.48 6.94L310.14 5.94L310.68 4.68L311.52 4.92L311.58 5.4L312 6.52V7.6L312.6 8.68L313.38 9.68L313.8 10.68V11.68L314.8 12.68L315.4 13.46L315.52 14.78L316.52 15.68L317 16.52L317.06 17.52L317.48 18.36L318.48 19.26L318.72 20.4L319.72 21.18L320.26 22.26L320.98 23.1L321.88 24.1L322.6 24.7L322.84 25.78L324.04 26.62L324.34 27.22L325.66 28.48L325.18 28.84ZM305.44 48.28L306.44 48.52L307.94 49.12L308.94 49.3L309.42 50.02L310.62 50.32L311.52 50.68L312.6 51.28L313.26 51.76L314.26 51.94L315.64 52.42L316 53.02L317.26 53.5L318.1 54.1L319.72 55.36L320.62 55.84L321.4 56.62L322.3 57.62L321.46 58.22L320.68 57.22L319.6 56.44L318.94 55.96L318.46 55.48L317.46 54.76L316.46 54.16L315.46 53.56L314.56 53.14L313.42 52.72L312.34 52.24L311.62 51.88L311 51.4L309.74 50.92L309.14 50.44L307.7 50.14L306.8 49.6L305.6 49.18L304 48.64L302.14 47.64L303.22 47.1L304.9 47.7L305.44 48.28ZM314.38 37.42L313.18 36.58L313.06 35.8L311.68 34.9L311.14 34.06L310.06 33.16L309.46 32.5L308.86 31.72L307.48 31.24L306.34 29.92L307.34 29.74L309.08 30.74L309.44 31.28L310.34 32.18L311.06 32.72L312.26 33.62L312.5 34.34L313.7 34.76L313.82 35.76L315.02 36.36L315.56 37.44L315.8 38.04L315.92 39.42L315.62 39.78L315.08 38.46L314.38 37.42Z" fill="black"/>
<path d="M41.26 105.78L42.34 105.72L43.42 105.96L45.1 106.26L45.58 106.62L46.58 107.04L47.48 107.76L48.62 108.12L49.62 108.78L50.34 109.2L51.72 110.2L51.96 110.74L52.56 111.52L53.22 112.72L53.82 113.62L54.36 114.7L54.42 115.48L55.08 116.68L55.5 117.68L55.44 118.88L55 121.08L55.12 122.16L54.76 123.16L54.82 123.94L54.16 125.14L53.56 125.98L52.96 126.98L52.36 127.88L51.7 128.66L50.98 129.38L50.74 130.16L49.6 131L48.46 131.66L47.68 132.26L47.2 132.86L46.48 133.52L45.22 134.18L44.22 134.6L43.08 135.2L42.36 135.74L41.76 136.16L40.76 136.64L39.4 137L38.86 137.24L37.72 137.78L36.82 138.08L34.82 138.14L34.94 137.54L35.94 137.18L36.84 136.88L37.44 136.34L38.94 135.86L40.02 135.62L40.8 135.14L41.8 134.42L44.38 133.52L45.16 132.74L46.16 132.14L47 131.72L47.48 131.18L48.74 130.46L49.74 129.56L50.1 128.72L51.18 127.88L51.84 127.04L52.68 126.14V125.36L53.28 124.22L53.52 123.08L54.12 122.08L54 120.9L54.06 118.9L54.18 117.64L54.06 116.74L53.82 115.74L53.22 114.54L53.04 113.82L52.5 112.82L51.36 111.82L50.82 110.98L50.34 110.32L49.26 109.72L48.36 109.12L47.36 108.58L46.7 107.98L45.8 107.38L44.8 107.08L43.72 106.96L41.26 106.42L40 106.24L39 107.14L38.88 108.22L38.46 109.12L37.86 110.32L37.08 111.1L36.84 111.94L36 113.22L35.64 114.12L34.44 115.02L33.9 115.74L33.36 116.58L32.82 117.48L32.1 118.26L31.1 119.04L30.98 119.88L29.98 120.88L29.38 121.6L28.66 122.44L28.18 124.24L28.12 125.24L28.54 126.5L29.26 127.34L29.5 128.78L29.02 129.44L28.42 129.08L28.24 128.24L27.34 126.98L27.16 126.26L26.68 125.26L25.84 124.72L25.06 125.38L24.64 126.22L23.86 126.82L22.86 127.54L21.96 128.02L20.76 128.5L20.34 128.92L19.14 129.58L18.54 130.12L16.2 130.54L15 130.9L14.46 130.84L13.46 130.36L12.46 130.12L11 128.34L10.4 127.44L9.98 126.44L9.56 125.66L9.5 124.46L9.8 123.46L9.74 122.62L11.12 120.4L11.48 119.8L11.78 118.72L12.38 117.82L13.28 116.92L13.88 116.26L14.88 115.36L15.12 114.94L16.2 114.22L16.68 113.32L17.52 112.66L18.72 111.94L19.72 111.46L20.32 110.92L21.64 110.2L22.48 110.02L22.84 109.48L24.28 108.94L25.42 108.28L25.9 106.96L26.08 105.82L26.26 104.98L26.5 103.78L26.56 102.88L26.8 101.98L26.44 100.9L26.68 100L27.28 98.8602L26 98.0002H25.16L22.28 97.8801L21.74 97.8202L20 97.5602L19.16 97.4402L18.46 97.0002L17.38 96.5201L16.24 95.9202L15.7 94.7802L16.36 94.1202L16.66 94.9602L17.8 95.6202L19.06 95.9802L19.84 96.5201L20.84 96.5802L21.92 96.8202L23.5 97.0002L25.18 96.6402L26.62 96.5802L27.62 95.4402L28.04 94.4402V93.2402L28.34 92.4602L28.88 91.2001L29.42 89.2802L29.54 88.2802L29.6 87.0802L28.6 85.8202L29.6 85.1602L30.2 86.2402L30.26 87.2402V88.1402L30 89.2202L29.88 91.5602L29.22 92.5602L29.1 93.4002L28.68 94.4002L28.32 95.6002L29.16 96.3202H30.42L31.62 95.9002L32.52 95.5402L34.14 95.2402L35.04 95.0002L36.04 94.6402L37.04 94.2202L37.76 93.9802L38.66 93.2001L40 92.8202L41.56 92.1602L41.68 92.8202L40.54 93.6002L39.7 94.2602L38.86 94.7402L37.86 95.2202L36.66 95.5802L35.94 95.7602L34.94 96.2402L33.86 96.6602L32.86 96.8401L31.66 97.0802L30.16 97.3202L29.16 97.5002L28.02 98.8202L27.72 99.8202L28.08 100.9L27.3 102.22L27.84 103.12L27.06 104.12L27.3 105.2L27 106.64L28.26 107.36L29 107L30.2 106.46L31.1 106.4L31.88 106.22L33.26 105.86L34.26 105.8L34.92 105.62L36.42 105.68L37.14 105.62L37.86 104.3L37.8 103.58L37.08 102.5L37.38 101.6L37.98 102.6L39.18 103.5V104.5L40.26 105.58L41.26 105.78ZM18.76 128.46L20.02 128.16L20.68 127.5L21.68 126.84L22.58 126.18L23.24 125.52L25.34 124.26L25.88 123.6L26.12 121.8L26 120.8L26.42 119.6L26 118.6L25.76 117.7L26 116.38L26.3 115.54L25.7 114.54L26.06 113.46L25.76 112.46L25.88 111.26V110.1L24.68 109.56L23.78 110.04L23.24 110.4L21 111.72L20.52 112.08L19.52 112.8L18.38 113.58L17.72 114.18L16.58 115.08L15.58 115.5L14.92 116.4L14.5 117.12L13.72 117.96L12.94 118.86L12.4 119.94L12.1 120.94L10.9 122.94L10.78 124.2L10.9 125.46L11 126.54L11.6 127.68L12.92 129.24L14.12 129.72L15.02 129.84L16.02 129.54L18.24 128.94L18.76 128.46ZM29.38 120.12L29.56 119.34L30.4 118.74L31.6 117.74L32.02 116.9L32.62 116L33.34 115.1L34.06 114.2L34.54 113.2L35.02 112.36L36.28 111.58L36.58 110.44L37.36 109.66L37.48 108.52L38.2 107.62L37.42 106.62L36.04 106.74L35 106.68L34.16 106.62L33.02 106.86L31.9 107L31.12 107.36L30.12 107.6L29.12 108.08L27.8 108.38L27.08 109.88V111L27.32 111.9L27.2 113.1L27.08 114.1L27.2 115.1L27.44 116.36L26.96 117.36V118.56L27.08 119.56L27.32 120.76L28.4 121L29.38 120.12Z" fill="black"/>
<path d="M87.58 130.2L86.14 129.6L85.42 129.06L85 128.4L84.22 127.62L83.22 126.78L82.92 125.78L82.2 125L81.78 124L80.88 123L80.64 122.22L80.22 121.14L80 120L79.7 119.16L79.54 118L78.94 117L78.88 116L79.18 114.92L79.12 113.84L78.64 112.84L79.12 111.76L78.94 110.76L79.06 109.56L79.48 108.66L79.06 107.66L79.3 106.58L79.48 104.18L79.84 101.84L79.78 100.7L79.3 99.8598L79.48 98.7198L78.48 97.8798L77.76 96.8798L78.9 96.3398L79.56 97.3398L80.34 98.3398L80.76 99.3398L80.46 100.48L80.7 101.98L81.06 103.78V104.92L80.76 106.92L80.22 107.82V108.9L80.4 110.04L80.5 111L80.2 112.08L79.84 113.16L80.38 114.16V115.3L80.02 116.14L80.14 117.4L80.68 118.48L80.86 119.56L80.98 120.46L81.76 121.54L81.7 122.62L82.06 123.52L82.84 124.52L83.56 125.18L83.86 126.08L85.06 126.8L85.84 127.46L86.26 128.36L87.34 128.06L87.58 126.98L87.16 126.2L87.28 125.06L87.94 123.98L88.24 122.98L88.3 121.72L89.38 120.72L89.8 119.72L90.1 118.82L90.46 117.62L91.46 116.9L91.82 115.9L92.72 114.52L93.32 115.18L92.84 116.18L92.3 117.32L91.64 118.32L91.04 118.98L90.64 120L90.4 120.9L89.8 121.9L89.2 122.74L88.84 123.74V124.74L88.6 125.88L88.48 127.08L88.6 127.92L88.42 129.18L88.84 130.38V130.98L88.66 130.86L87.58 130.2ZM119.58 120.48L118.86 119.82L117.96 119.52L117.66 118.98L119.04 118.74L120.04 118.14L119.5 117.14L119.02 115.88L118.66 114.88L118.72 114.16L118.24 112.96L117.64 112.12L116.98 111.46L116.2 110.46L115.42 109.68L114.58 108.96L113.86 108.36L113.14 107.52L110.5 106.26L110.8 105.42L111.7 105.84L113.14 106.38L113.98 107.04L114.52 107.52L115.42 108.42L116.08 109.02L116.8 110.02L118 110.86L118.06 111.7L118.72 112.84L119.8 113.56L119.62 114.82L120.62 115.96L120.68 116.96L120.56 117.96L120.74 119.22L121.28 120.12V121.86L120.44 121.92L119.58 120.48Z" fill="black"/>
<path d="M158.14 138.72L159.4 137.88L160.4 137.34L161.12 136.86L161.78 136.44L163.22 135.72L163.58 135.24L164.78 134.7L165.68 133.8L166.28 133.08L166.94 132.24L168.2 131.52L169 131L169.54 129.92L169.84 129.08L170.84 128.36L171.08 127.58L172.08 126.58L172.68 125.5L172.62 124.84L173.04 123.76L173.7 122.86L174.3 120.7L174.84 119.62L174.96 118.62L175.26 117.62L175.2 116.72L175.44 115.72L175.14 114.72V113.64L175.56 112.44L175.32 111.36L175.2 110.46L174.6 109.56L173.88 107.56L173.52 106.9L172.2 106.3L171.54 105.7L171.12 105.22L169.68 104.56H168.68L168.14 104.2H164.84L163.84 104.44H162L160.92 104.74L160.32 104.86L159 105.28L158.1 105.58L157.1 106.12L154.94 107.12L153.44 107.48H152.78L151.7 107.6L150.26 107.54L148.94 106.7L149.94 106.04L150.84 106.58L152.34 106.76L152.88 106.4L154.68 105.92L156.3 105.2L157.62 104.72L158.22 104.3L159.22 104.18L160.3 103.58L161.68 103.52L163.06 103.22L164.06 103.16H165L166.2 103.04L167.4 103.22H168L169.38 103.52L170.64 103.76L171.64 104.42L172.24 104.66L173.5 105.44L174.1 106.16L174.4 107.24L176.02 108.86L176.08 109.86L176.02 111.18L176.38 112.26L176.74 113.26L176.14 114.34L176.2 115.6L176.56 116.5L176.44 117.76L175.66 118.76L175.78 119.84L175.6 121.1L174.46 123.1V123.94L173.68 124.84L172.6 126.84L172.18 127.62L172.12 128.46L171.58 129.18L170.68 130.32L169.9 131.04L169.54 131.82L168.34 132.6L168.04 133.5L166.66 133.98L166.24 134.88L164.98 135.42L164.5 136.26L163.24 136.92L162.82 137.52L161.62 138.06L160.62 138.48L159.9 139.08L158.58 139.5L158.52 139.38L158.14 138.72ZM162.04 92.7201L163.3 92.1801L164.14 91.6401L163.9 91.0401L162.82 90.6201L161.68 90.4401L160.96 89.7801L159.64 89.0001L158.8 88.4001L157.72 87.5601L157.96 87.0801L159.58 87.5001L160.06 88.1001L161.38 88.5801L161.86 89.4201L162.86 89.6601L164.12 90.0801L164.84 90.3201L166.22 90.6801L167.06 90.8601L168.14 91.2201L169.94 91.1601L170.66 91.5201L170.42 92.2401L169.52 92.3601L168.32 92.0601L167 92.3601L165.8 92.1801L164.6 92.3601L164.12 92.9601L162.68 93.3201L162.5 93.4401L162.04 92.7201Z" fill="black"/>
<path d="M249.22 135.54L248.02 135.48L247.02 135.78H246.02L245.24 135.84L244 136L241.54 135.94L240.64 135.64L239.8 135.76L238.54 135.58L237.16 135.46L235.06 134.92L234.06 134.44L232.9 134L232.66 133.28L231.76 132.56L231.04 131.9L230.38 130.76L229.84 130.1L229.6 128.78L229.36 127.78L228.88 126.88L228.22 124.88L228 124L227.52 123.4L225.66 122.68H224.28L223.74 122.92L222.18 123.1L221.46 123.46L220.38 124.12L219.24 125.56L218.24 126.22L217.24 127.12L216.4 127.9L215.8 128.8L215.14 129.64L214.6 130.54L213.46 131.32L213.16 132.16L212.8 133.24L211.9 134.5L211.48 134.44L211.42 133.12L211.84 132.34L212.68 131.34L212.98 130.34L213.58 129.5L214.18 128.84L215.56 127.94L215.8 126.86L216.34 126.32L217.6 125.32L217.96 124.48L219.22 123.7L219.52 122.7L220.78 122.1L221.26 121.1L222.34 120.56L222.88 119.48L223.42 118.88L224.56 118.16L224.98 117.08L226.66 115.76L227.26 114.76L228.52 114.1L229.24 113.26L229.66 112.48L230.8 111.64L231.16 110.74L232.06 109.9L233.06 109.18L233.54 108.28L234.38 107.68L235.38 106.68L236.22 105.78L237 104.88V104.04L236.7 103.5L235.92 103.8L234.66 103.92L233.76 104.4L232.44 104.52L231.84 104.82L230.84 105.06L229.58 105.72L228.74 105.78L226.22 106.5L225.22 106.92L224.56 107.28L223.3 107.82L222.64 108L220.54 108.18H219.4L218.32 108L217.32 107.34L216.12 106.26L216.84 105.54L217.56 106.68L218.76 106.92L220.26 107.1L221.88 106.98L223.08 106.62L223.92 106.32L225.3 106.02L226.2 105.66L228.54 104.76L229.54 104.58L230.32 104.22L231.22 103.68L232.22 103.44L233.9 103.2L234.68 102.78L235.58 102.6L236.9 102.24H237.68L238.94 102.06L239.18 101.82L239.96 102.3L239.54 103.38L238.4 104.52L238.1 105.3L237.1 106.02L236.86 107.02L235.72 107.56L234.88 108.56L234.16 109.22L233.56 110.3L233.2 110.78L231.88 111.78L231.4 112.62L230.74 113.22L229.6 114.06L228.88 114.9L228.04 115.56L227.38 116.46L226.06 117.96L224.98 118.74L224.32 119.64L223.42 120.64L223.12 121.48L223.48 121.78L224.32 121.54L225.52 121.6L227.74 122.44L228.74 123.34L229.4 124.6L230.24 126.6V127.74L230.36 128.52L230.84 129.66L231.08 130.44L232.22 131.44L232.88 132.22L233.66 132.76L234.44 133.42L235.22 133.84L237.14 134.32L238.14 134.5H239.52L240.24 134.68H241.44L242.44 134.62L243.58 134.68H245L245.66 134.5L246.66 134.44H248.66L250.28 134.2L250.58 134.98L249.22 135.54ZM225 87.54L226.56 88.02L227.04 88.74L228.42 89.28L229.42 90.12L230.2 90.42L231.94 90.9L232.54 91.56L233.54 91.62L235.34 92.46L235.16 93H232.6L231.22 93.24L230.32 93.66L229.9 93.72L229.6 93.12L230.92 92.58L230.44 91.86L229.6 91.2L228.6 90.9L227.4 90.24L226.92 89.64L225.66 89.28L224.82 88.28L225 87.54Z" fill="black"/>
<path d="M282.22 134.22L281.5 134.1L280.78 133.62L278.56 132.36L278.26 131.88L277.48 130.98L276.82 130.08L276.1 127.68L276.7 126.84L277.24 125.84L278.08 124.84L278.8 123.94L280.6 122.14L281.2 121.6L281.92 120.94L282.76 120.34L284.26 119.56L285.26 118.84L286.04 118.24L286.46 116.5L286.7 115.36V114L286.64 113.1L286.94 111.84L286.88 110.84L286.76 109.58L286.7 108.8L287.06 107.42L286.7 106.42L287.18 105.34L285.44 104.44L283.1 104.8L281.18 104.98L279.68 104.86L278.84 104.68L278.12 104.26L276.62 104.08L275.72 103.66L274.52 102.88L275.12 102.16L275.9 102.46L276.74 103.12L278 103.3L279.2 103.54L280.46 103.72L281.3 103.78L282.44 103.84L283.34 103.6L285.5 103.54L287.12 102.04V101L287 99.6604L286.88 98.5804L286.82 97.6804L287.3 96.6804V95.5204L287.36 93.4204L287.14 92.0004L287.08 91.0004L286.78 89.5604L287.08 88.9004L288.08 89.9004L288.26 90.9004L288.38 91.9004L288.86 93.4604L288.2 95.7404L288.32 96.4004L288.2 97.6604V98.6604L288.26 99.5004L288.08 100.82L287.9 101.6L288.8 102.26L290.3 102.08L291.02 101.48L292.02 101.06L293.02 100.76L293.68 100.1L295.18 99.6204L296.86 98.4204L297.52 98.9604L296.38 99.8604L295.84 100.34L294.34 101.06L293.74 101.72L292.12 102.2L291.58 102.56L290.44 103.16L289.18 103.46L287.8 105.02L288.22 106.02L288.1 107.02L287.68 108.28L288.28 109.48L287.8 110.38L287.98 111.64L287.68 112.48L287.8 113.74L288.1 114.64L287.62 115.84L288.62 116.2L289.88 115.72L290.96 115.24L291.44 114.7L292.88 114.4L293.3 113.92L294.3 113.62L295.56 113.08L296.56 112.6L297.64 112.42L298.48 112.18L299.48 111.7L300.38 111.76L302.12 111.46H302.96L305.12 111.52H306.12L307.26 111.7L308.46 112L310.2 112.72L311.2 113.26L311.8 113.92L312.94 114.28L313.78 115.28L314.26 115.94L314.74 117.2L315.34 118.2L315.94 119.2L315.58 119.98L316.18 121.06L315.76 123.58L316.18 124.58L315.82 125.66L315.58 126.66L315.1 127.66L314.32 128.74L313.6 129.46L312.88 130.3L312.04 131.08L310.96 131.68L310.06 132.16L309.4 132.34L308.14 132.82L305.08 132.7L303.82 132.82L302.82 132.64L301.56 132.16L300.72 131.92L299.88 131.32L298.44 130.96L298 130L296.86 129.16L296.26 127.84L297.26 127.54L297.5 128.32L298.4 129.1L299.4 129.82L300.48 130.3L301.48 130.78L302.68 131.2L303.4 131.62L304.18 131.68L307.9 131.62L308.44 131.08L309.52 130.72L310.72 130.3L311.32 129.58L312.32 128.86L312.86 128.2L313.28 127.2L314.72 125.2L314.3 124.2L314.66 123.06L314.96 121.06L314.54 119.8L314.24 118.72L313.58 117.82L313.34 116.98L312.74 116.08L311.9 115.08L311 114.24L309.86 113.88L309.2 113.46L307.94 112.92L307.1 112.74L306.32 112.32L304.76 112.44L302.9 112.5L301.46 112.56L300.68 112.68L299.68 112.86L298.36 113.1L296.62 113.7L295.62 114.3L294.42 114.48L293.28 114.96L292.86 115.56L291.3 115.98L290.76 116.58L289.92 117.06L288.6 117.6L288.12 119.22L287.76 120L287.82 121.2L287.88 122.34L288.18 123.24L288.3 124.24V125.5L287.94 126.28V127.42L288.24 128.42L288.42 130.58L287.88 131.58L288 132.42L287 133.56L285.26 134.64L283.64 134.7L282.22 134.22ZM284.92 120.06L284.38 120.72L283.66 121.02L282.4 121.68L281.56 122.58L280.9 123.18L279.34 124.8L278.44 125.7L277.72 126.36L277.6 127.62L277.66 129.9L278.66 130.68L279.66 131.28L281.1 132.66L282.84 133.44L284.1 133.56L285.24 133.62L286.98 132.48L287.4 131.48L287.52 130.28L286.86 128.48L286.74 127.28L287.1 126.14L287.04 125.24L286.92 124.24V123.16L287.04 121.78L286.86 120.88L286.62 119.8L285.96 119.2L284.92 120.06ZM318.58 106.62L317.26 106.2L316.18 105.84L315.1 105.96L313.6 106.56L313.54 105.72L314.98 105.06L315.52 104.7L316.72 104.88L317.44 105.06L318.34 104.64L318.04 103.56L316.96 102.66L316.18 102.06L315.34 101.52L314.5 100.92L313.5 100.74L312.3 100.38L311.3 100.02L310.52 99.9004L308.52 99.6604L309.06 98.8204L310.5 98.6404L311.4 99.1204H312.3L313.68 99.6004L314.34 99.9604L315.6 100.38L316.2 101.04L316.92 101.64L317.76 102.3L318.84 102.84L319.32 103.84L319.56 104.74L319.86 105.88L320 107L318.8 107.36L318.58 106.62Z" fill="black"/>
<path d="M52.1199 173.72L51.4599 174.72L50.8599 175.56L50.0199 176.16L49.3599 177L48.1599 177.84L47.7399 178.68L46.6599 179.28L46.2999 180.06L45.5199 180.78L44.3799 181.62L43.7199 182.28L42.5199 182.82L41.3799 183.3L40.5999 183.9L39.8799 184.56L38.4399 185.1L38.0199 185.34L36.3999 185.88L36.0399 186.24L34.4799 186.54L34.7799 187.32L34.2399 188.52L34.0599 189.52L33.9999 190.82L33.6399 191.82L33.7599 192.66L33.3399 193.86L33.0399 194.76L32.2599 196L32.1399 197L31.8399 198L31.2999 199L30.9399 199.9L30.4599 201.1L29.9999 202L29.6399 202.72L28.9999 204L28.6999 204.84L28.3999 205.62L27.5599 206.62L27.6199 207.62L26.9599 208.76L26.4799 209.54L25.6999 210.26L24.9799 211.34L24.3799 212.06L23.9599 213.26L22.8799 214.1L22.2799 214.88L21.6799 215.66L21.1999 216.32L20.2999 217.22L18.9199 218.22L18.6799 217.38L19.5199 216.18L20.7799 215.58L21.2599 214.68L21.7399 213.78L22.4599 213.12L23.5399 212.28L23.5999 211.38L24.2599 210.54L24.8599 209.7L25.5799 208.7L26.2999 207.56L26.5999 206.78L27.1399 205.88L27.3799 204.8L28.5199 203.9L28.3999 202.9L28.9399 202L29.4199 200.8L30.1399 199.8L30.5599 198.66L30.8599 197.94L31.0399 196.68L31.7599 195.84L31.8799 194.58L32.1799 193.86L32.4799 192.6L33.0799 191.6L33.2599 190.6L32.9999 189.62V188.62L33.4799 187.36V185.36L32.9399 184.36L32.5799 183.64L31.3799 182.56L31.7999 182.02L32.7999 182.8L33.5799 183.4L34.1799 184.3L35.3199 184.9L36.6399 184.72L37.6399 184.24L38.7999 184L39.8799 183.7L40.2399 182.92L41.5599 182.32L42.2199 181.96L42.9999 181L44.0799 180.4L44.8599 179.98L45.6999 179.08L46.2999 178.54L47.5599 177.64L48.2799 176.92L48.3999 176.02L49.3999 175.48L50.0599 174.64L51.1399 173.64L50.5399 172.64L49.2199 172.58H47.9999L47.2799 172.4L46.2799 172.58L44.9999 172.4L44.2799 172.64L43.1999 172.82H42.0999L40.6599 172.94L39.2799 173.18L38.7999 173.24L37.1199 173.36L36.3399 173.54L35.0799 173.78L34.1799 173.96L32.9199 174.08L32.1399 174.26H30.6399L29.4399 174.68L28.5999 174.62L27.7599 174.86L26.1999 175L25.3599 175.24L24.5799 175.36L23.4399 175.42L22.2399 175.84L21.2399 175.78L20.2399 176.2L19.3399 176.08L17.7799 176.56L15.7799 176.74L14.8799 176.68L13.4999 176.32L12.1799 176.08L11.3999 175.08L11.8199 174.54L12.8199 175.02L13.5399 175.32L14.9199 175.44L15.8199 175.62L17.7399 175.44L18.7399 175.32L19.7399 175.2L20.9999 175.1L23.2799 174.62L24.0599 174.5L25.3199 174.26L26.3199 174.14L27.5199 173.78H28.5199L29.7199 173.54L30.7999 173.42L33.1999 172.94H34.1999L34.6799 172.76L36.2999 172.46L37.1399 172.28H38.5799L39.2399 172.1H40.4999L41.2199 171.98L42.5399 171.62L43.6799 171.8L45.1199 171.5L45.7199 171.44H47.7199L49.4599 171.38L50.1799 171.44L50.9599 171.62L52.2199 172.1L53.1199 172.7L52.1199 173.72Z" fill="black"/>
<path d="M77.8 199.76L78.64 199.04L79.42 198.44L80.42 197.72L81.42 196.94L82.56 196.34L83.4 195.74L83.88 195.14L85.08 194.42L85.8 193.76L86.52 192.98L87.66 192.5L88.08 191.5L88.98 190.84L89.82 190.18L90.6 189.4L91.5 188.92L92.5 188.14L93.16 187.14L94.3 186.6L94.54 185.76L95.44 184.98L96.44 184.08L96.8 183.54L98 182.7L98.84 181.86L99.62 181.08L99.8 180.24L100.7 179.34L101.7 178.62L102.06 178.02L103.32 177.12L104 176L104.18 175.28L105.26 174.38L105.5 173.48L106.5 172.76L107.28 170.9L107.04 169.64L106.98 168.74L107.04 167.24L107.88 167.12L108.6 168.32V169.4L108.06 170.12V171.32L107.34 173.06L106.68 173.9L106.38 174.9L105.72 175.44L105 176.34L104.16 177.42L103.08 178.02L102.84 178.86L101.76 179.7L101.34 180.6L100.62 181.32L99.78 182.04L99.36 182.82L98.52 183.72L97.2 184.38L96.6 185.38L96.18 186.28L95.28 187L94.28 187.72L93.62 188.38L93.14 189.04L92.24 189.88L91.46 190.6L90.68 191.44L89.36 192.04L88.94 192.82L88.1 193.3L87.02 194.2L86.42 194.86L85.16 195.34L84.44 196.24L83.84 196.84L82.58 197.44L81.98 197.98L81.38 198.76L80.54 199.18L79.46 199.84L77.78 200.5L77.8 199.76ZM99.46 218.66L99.34 217L99.58 215.86L99.4 214.78L99.28 213.78V212.6L99.94 211.7L99.46 210.62L99.4 209.42L99.94 208.28L99.58 207.14L99.34 206L99.82 205.16L99.88 203.9L99.7 202.9L99.58 201.76L99.76 200.56L100.18 199.72L99.7 198.64L100.18 197.44L99.76 196.36L100.24 195.16L99.64 194.02L100.24 193.18V192.1L100.18 190.9L100.12 189.9L99.94 187.44L99.22 186.54L98.14 185.4L98.62 184.74L99.62 185.74L100.76 186.4L100.88 187.4L101.06 189.4L100.82 190.4L101.06 191.72L101.12 192.92V193.92L101.18 195.12V196.02L101 197.18L100.76 198.38L100.58 199.52L100.88 200.52L101.12 201.6L101.06 202.98V203.82L100.7 205.14L101.12 205.98L100.42 207L100.54 208.26L100.9 209.26L100.54 210.46L100.48 211.46L100.72 212.6L100.48 213.6L100.66 214.8L100.36 215.88L100.84 216.88L100.66 218.56L99.46 218.66Z" fill="black"/>
<path d="M182.74 181.4L182.32 182.54L182.38 183.62L182.08 184.46L181.42 185.36L181.48 186.36L180.82 187.44L180.4 188.58L180.1 189.36L179.5 190.44L179.38 191.64L178.66 192.64L178.24 193.42L177.88 194.68L177.76 195.52L177.1 196.3L176.8 197.44L175.72 198.44V199.16L174.34 201.26L173.86 202.16L172.86 202.82L172.32 204.02L171.72 204.74L170.88 205.46L170.58 206.46L169.86 207.36L168.96 208.26L168.6 209.04L167.76 209.76L167.1 210.6L166.2 211.2L165.3 211.98L164.7 212.82L163.8 213.66L162.96 214.44L162.48 214.92L161.4 215.46L159.96 216.46L159.48 215.62L160.92 214.62L161.28 213.96L162.36 213.18L163.14 212.7L164.14 211.8L164.62 211.14L165.52 210.36L166.06 209.82L167.38 208.74L168.1 208.02L168.82 207.12L169.54 206.4L169.78 205.62L170.26 204.78L171.26 204L171.74 203.1L172.4 202.32L173.3 201.32L173.24 200.18L174.44 199.46L174.74 198.62L175.52 197.54L176.06 196.7L176.54 195.7L176.6 194.92L177.5 193.92V192.84L178.16 191.94L178.46 190.94L179.12 189.8V188.8L180.02 188.08L179.78 186.82L180.44 185.92V185.08L181 184L181.24 183L181.6 182L181 180.86L180 180.44L178.8 180.56L177.48 180.68L176.76 180.44L175.5 180.5L174.3 180.44L173.3 180.56L172.1 180.74H171.32L169.88 180.62L168.88 180.86H168.04L166.54 181.16L165.76 181.22L164.62 181.28L163.3 181.16L162.4 181.4L161.26 181.46L159.7 181.34L158.62 181.28L158.08 181.4L157.08 181.76L155.94 181.46L154.74 181.52L153.84 181.82H150.1L148.9 181.52L148.66 182.52L149.14 184.52L149.08 185.42L148.72 186.56L148.96 187.76L148.9 188.76V189.6L149.14 190.92L149.08 193.02L149.38 194.1L149 195.5L149.06 196.58L149.24 198.02H148.52L148.04 196.64L147.74 195.5L148.22 194.36L147.68 193.46L148.22 192.46L147.8 191.08L148.16 190L147.74 189.16L148.28 188.08L148.04 187L148.16 185.92L147.98 184.92L147.74 182.7L146.74 181.7L146.5 180.92L145.3 180.08L145.72 179.36L146.26 180.08L147.34 180.26L148.06 180.44L149.06 180.8L150.26 180.92L152.12 181.04L154.88 180.98L155.78 180.62L156.5 180.68L157.7 180.56L158.96 180.74L159.96 180.62L161.4 180.32L162.6 180.44L163.74 180.26L163.5 179.26L163.68 178.26L163.98 177.06L163.56 176.22L163.92 174.9L163.98 174.18V172L163.38 171.1L163.26 170.38L162.18 169.24L162.66 168.64L163.56 169.48L164.56 170.14L164.86 171.14L165.16 171.98L164.74 174.26L165.22 176.78L164.56 177.68L165.16 178.88L166.16 180.26L167.16 180.14L168.6 179.9L169.6 179.96L170.44 179.72L171.34 179.6L172.96 179.78L173.74 179.72L175.06 179.54L175.96 179.66L177.1 179.72L178.24 179.6L179.38 179.66H181.12L182.92 180.02L183.28 180.08L182.74 181.4Z" fill="black"/>
<path d="M254 206L252.62 205.76L251.62 205.4L249.7 204.86L248.44 204.68L247.44 204.86L246.06 204.56L245.16 204.68H244.5L243.42 204.38L242.42 204.68L240.74 204.62L239.74 204.5L238.74 204.68H236.46L235.32 204.8L234.84 204.92L233.22 204.8L232.5 204.98L231.5 205.1L230 205L229.1 205.42L228.38 205.48H225.8L225.14 205.78L224.14 205.66L222.64 206.08H220.48L219.22 206.14L218.32 206.38L217.06 206.68L216.58 206.86L215.58 206.98L213.9 207.04L213.06 207.22H210.66L209.66 207.16L208.82 206.8L207.82 206.5L206.38 205.66L206.68 205L208 205.54L209 206.08L210 206.38L210.66 206.5L212.66 206.02L215.18 205.84L216.02 205.6L217.28 205.66L219.08 205.36L220.34 205.24L221.72 205.18L222.72 204.94L223.72 204.82L224.98 204.52H225.98L227.54 204.34L228.86 203.34L228.8 202.08L228.68 201.08L229.16 200.24L228.92 199.24L229.28 198.16L229.34 196.78L229.76 195.78L229.58 194.64L230.12 193.86L230 192.54L230.3 191.64L230.66 190.64L230.78 189.64L230.9 187.24L230.66 186.52L230.3 185.52L229.46 184.38L229.94 183.6L230.94 184.6L231.48 185.38L231.84 186.38V187.64L231.96 189.64V190.42L230.96 192.64L231.14 193.54V194.68L231.02 195.68L230.66 196.88V197.88L230.12 198.88L229.88 200.02L229.7 201.1L230 202.3L229.58 203.3L230.78 204.14L231.78 203.96H232.92L234.24 203.84L234.78 203.96L235.92 203.72L237.36 203.9L239.64 203.72H241.86L242.76 203.54L243.84 203.66H244.84L246.04 203.72L246.88 203.6L248.14 203.78L249.34 203.66L250.34 203.84L250.94 204.08L251.94 204.5H252.94L254.5 205.22L254 206ZM212.18 179.54L213.68 180.26L214.94 180.38L216.2 180.92H217.1L219.26 180.86L220.52 180.56L221.24 180.68L223.94 180.14H226.1L227.24 179.9L228.02 179.84L228.8 179.78L230.48 179.66L231.26 179.78L232.26 179.66L233.58 179.42L234.66 179.18L235.14 179.36L236.34 179.18L237.34 179.24L238.6 179.18L239.5 179.06L240.82 178.88L241.66 178.94H243.28L243.88 179.12H245.62L245.2 180.12L244.36 180.06L243.16 179.82L241.9 180L241.06 180.06L240.16 179.82L238.96 180.18L237.88 180L236.74 180.12L235.42 180.36L234.64 180.12L233.32 180.24L232.54 180.3L231.16 180.6H229.9L229.48 180.72L228.1 180.78L226.9 180.96L226.24 181.08H224.8L223.96 181.14L222.76 181.32H221.56L220.78 181.68L219.58 181.8L217.58 181.98L216.44 181.74L215.44 181.5L214.36 181.56L213.16 181.02L212.08 180.3L212.18 179.54Z" fill="black"/>
<path d="M318.34 183L317.44 182.82L316.3 182.34L314.62 182.4L313.62 182.16L312.3 182.28L311.22 182.34L309.22 182.28H307.84L306.84 182.4H305.52L304.32 182.46L303.48 182.64L302.28 183.84L301.8 185.04L302.22 186.04L301.74 187.12L301.86 188.32L301.92 189.4L302.16 190.4L301.86 191.6L301.98 192.74L302.1 193.74L301.74 194.74L302.28 195.82L301.8 197.08L302.22 197.98L301.98 199.36L302.28 200.44L302.16 201.52L302.1 202.52L301.92 203.6L302.04 204.6L301.92 205.68L302.22 207.06L301.62 208.14V209.14L302.34 210.28L302.28 212.44V213.44L301.92 214.64L301.02 216.64H299.22L298.5 215.26L298.44 214.42L297.36 213.58L296.7 213.16L295.44 212.5L294.9 212.14L293.52 211.84L293.46 211.18L294.6 211.24L295.92 211.72L296.34 211.96L297.42 212.68L298.56 213.22L299.46 213.64L299.76 214.48L300.76 214.54L300.64 213.54L301.24 212.54L301.06 210.44L301.18 209.44L300.7 208.24V206.14L301 205.14L300.76 203.88L300.58 202.98L301 201.54L301.12 200.54L300.58 199.46L301.18 198.2L301.12 197.36L301 196.28L301.06 195.14L300.64 194L300.94 192.8L300.82 191.8L301 190.54L300.94 189.7V188.44L300.76 187.44L300.88 186.36L300.82 184.98L299.62 185.98L299.32 186.82L298.84 187.66L298.36 188.56L297.16 189.56L297.1 190.22L296.38 191.3L295.72 192.2L295.18 192.92L294.04 193.64L293.74 194.54L292.9 195.38L291.9 196.46L291.6 197.18L290.6 197.84L289.52 199.46L288.2 200.46L287.72 201.12L287 201.96L286.1 202.5L285.1 203.28L284.1 203.94L283.26 204.84L282.54 205.32L281.94 206.22L280.94 206.76L280.22 207.42L278.78 208.2L277.94 208.8L277.16 209.52L276.16 210.06L275.16 210.42L274.44 209.76L276.18 209.16L276.48 208.5L277.98 207.66L278.76 207.18L279.76 206.4L280.36 205.98L281.36 205.08L282.44 204.54L282.74 203.82L283.58 203.1L284.42 202.26L285.42 201.6L285.84 200.94L286.68 200.22L287.68 199.44L288.4 198.78L289.6 197.78L290.38 197.18L290.5 196.1L291.82 195.56L292.3 194.66L293.14 193.66L293.8 192.76L294.22 191.98L294.7 191.2L295.54 190.12L296.2 189.4L296.5 188.4L297.22 187.62L297.76 186.72L298.36 185.82L299.26 184.98L299.44 183.84L299.08 183L298.36 183.24L296.68 183.42L296.32 183.24L295.24 183.54L294.04 183.66L292.42 183.72L291.28 184.02L290.86 183.84L289.24 184.08L288.4 184.38L287.4 184.32L286.4 184.38L284.78 184.56L283.7 184.68L282.86 185.04L280.64 184.98L279.86 185.04L278.86 184.86L277.86 184.62L277.02 184.38L275.82 184.2L275.22 183.2V182.36L276.36 183.14L277.44 183.56L278.28 184.1L279.36 184.04L280.44 184.22L282.96 184.1L283.74 183.8L285.06 183.56L286.06 183.44H286.72L287.86 183.32L289.36 183.08L290.5 182.84L291.5 182.78L292.76 182.72L293.3 182.54L294.56 182.36L295.34 182.42L296.34 182.24L297.6 182.06L298.92 182L299.92 182.12L301.12 180.68V179.9L301.24 178.82L300.7 177.62L300.88 176.36L301.18 175.46L301 173.3L300.76 172.22L300.22 171.08L299.8 170.08L298.48 168.82L299.48 168.28L300.14 169.18L301.22 170.26L301.28 171.16L301.7 172.16L301.88 173.16L302.06 175.38L302.42 176.16L301.82 177.48L302.36 178.32L302.18 179.7L301.88 180.54L303.14 181.74L304.52 181.68L305.3 181.32L306.2 181.38L307.52 181.2H308.52L309.36 181.26L311.36 181.2L312.8 181.26L313.88 181.08L315.14 181.2L315.92 181.5L317.36 181.62L318.14 181.98L319.34 182.82L318.34 183Z" fill="black"/>
<path d="M45.8201 294.46L45.1001 294.34L43.6601 294.16H42.1001L40.4801 293.92L42.1601 293.26L42.5801 292.54L42.1001 291.4L41.7401 290.5L41.2601 289.42L41.4401 288.52L40.3601 287.44L40.2401 286.3L40.1801 285.58L39.4001 284.44L39.2801 283.44L38.9801 282.44L38.3201 281.24L37.6601 280.46V279.56L37.0001 278.5L36.6401 277.42L36.5201 276.42L36.0401 275.52L34.6001 274.68L33.4001 274.62L32.5601 274.44L31.4201 274.5H30.4201L29.2201 274.56L28.1401 274.5L26.0401 274.68L25.2001 274.44L23.8201 274.38L22.9801 274.68L21.5401 274.5L20.4601 274.38H19.3601L18.5801 274.68L17.2601 275.34L16.2601 276.6L15.9001 277.38V278.46L15.5401 279.46L15.1801 280.46L14.6401 281.6L14.2201 282.38L13.8001 283.52L13.2601 284.3L13.1401 285.56L12.6001 286.28L12.3001 287.36L11.8201 288.56L11.1001 289.22L11.0001 290.44L10.8201 291.34L9.98007 292.34L10.9801 293.24L12.7801 293.96L11.0001 294.4H10.1201L8.74007 294.22L7.84007 294.4L6.64007 294.16L5.32007 293.86L7.66007 293.2L8.86007 292.2L9.46007 291.2L9.88007 290.3L10.1801 289.16L10.7201 288.38L10.9001 287.12L11.7401 286.4L11.6801 285.32L12.1601 284.32L12.8201 283.12L12.7601 282.22L13.6001 281.22L13.8401 280.22L14.5001 279.14L14.3801 278.3L15.2801 277.22L15.8201 276.32L16.0601 275.06L16.3001 274.06L17.1401 273.06L16.9601 272.06L17.5001 271.16L17.6801 270.16L18.6801 269.08L18.8001 268L19.5201 267V266L20.1201 265.28L20.3601 264.02L20.7801 263.02L21.2001 262.02L21.9801 261.02L22.3401 260.02L22.2801 258.88L23.1801 257.88L23.7201 257.04L24.3201 255.04L24.6801 254.04L25.2201 253.14L26.0601 252.24L27.2601 251.76L28.9401 251.52L28.4601 252L28.6401 253.14V253.98L29.1201 255.3L29.4201 256.02L30.1401 257.22L30.5001 258.06L30.8001 259.26L31.5801 260.34L31.8201 261L31.7601 262.2L32.1201 263.28L32.6001 264.28L33.2601 265.12L33.8001 266.12L33.8601 266.96L34.4601 268.22L35.0601 269L35.1201 270.14L35.4201 271.04L35.8401 272.18L36.0201 273.18L36.6201 274.32L36.9801 275.32L37.7001 276.16L37.7601 277.16L38.0001 278.5L39.0001 279.34L39.4201 280.18L39.2401 281.32L40.1401 282.46L40.0801 283.24L40.5601 284.38L41.4601 285.46L41.5201 286.46L41.5801 287.36L42.4201 288.5L42.5401 289.5L42.9001 290.28L43.5001 291.48L43.8001 292.48L44.8801 293.38L46.4401 293.62L47.8201 294.1L45.8201 294.46ZM20.0001 273.7L21.2601 273.64L22.4601 273.52H23.5401L24.0201 273.64L25.4001 273.58L26.1801 273.76L27.3201 273.58L28.8801 273.64L29.9601 273.76L30.6201 273.58L32.2401 273.46L33.3201 273.58L34.4001 273.64L34.7001 272.56L34.5801 271.56L34.4601 270.56L34.0401 269.84L33.0401 268.84V267.64L32.2001 266.74L31.8401 265.96L31.5401 264.82L31.0601 263.92L31.2401 262.84L30.7601 261.94L30.3401 260.8L30.0001 259.9L29.4601 258.9L29.2201 257.7L28.9201 256.7L28.3201 255.86L28.0201 255.02L27.3001 253.88L26.3001 253.76L26.1201 254.76L24.9201 255.42L24.4401 257.42L24.1401 258.56L23.6001 259.56L23.4201 260.4L22.9401 261.4L21.9401 262.72L21.5801 263.62L21.2801 264.62L21.1601 265.52L20.4401 266.66L20.1401 267.66L19.9601 268.5L19.4201 269.76L18.6401 270.48L18.8801 271.74L18.0401 272.64L18.7601 273.72L20.0001 273.7Z" fill="black"/>
<path d="M78.5801 270L79.42 270.3L80.2601 270.66L81.7 270.84L82.5401 271.08L83.38 271.86L84.38 272.28L85.7 272.7L86.06 273.6L88.5801 276.12L89.1201 276.96L89.18 278.22L89.6 279.36L89.4801 280.36L89.3601 282.46L89.06 283.46L89.24 284.54L89.06 285.74L88.34 286.64L88.1 287.72L87.1 288.5L86.4401 289.5L85.6601 290.1L84.7601 290.94L84.1601 291.54L83.32 292.26L82.06 292.62L81.06 293.16L79.92 293.34L79.0801 293.58L78.0801 293.76L76.7601 294.18L75.56 294.06L74.42 294.42L73.2201 294.36H71.6201L70.06 294.42L69.52 294.36L68.02 294.42L67.5401 294.3L66.2201 294.42L65.14 294.54L64 294.24L63.16 294.48L62.26 294.54L60.8801 294.36L59.32 294.06L61.12 293.52L61.7201 293.4L62.8601 292.2L63.28 291.12L63.2201 290.22L63.1 288.96L62.92 288.12L62.8 286.98L63.2201 285.84L62.8 284.7L62.98 283.86L62.7401 282.72L63.28 281.64L63.4001 280.64L63.34 279.26L63.0401 278.26L62.92 277.36L63.0401 276.28L63.34 274.96L63.2201 274.18L63.34 272.8L63 272L62.94 270.8L63.2401 269.66L63.0601 268.46V267.74L63.2401 266.6L63.42 265.28L62.94 264.28V263.38L63.12 262.3L63.3601 261.04L63 260L63.3 259.1L62.76 257.9V256.9L62.8801 256L63.18 254.68L62.82 253.84L61.82 252.46L60.98 252.22L60.3801 252.1L59.3 251.1L60.92 251.22L62.12 251.52L63.12 251.58L65.0401 251.64H65.8801L66.8801 251.52L68.5 251.76L69.34 251.64H70.6L71.74 251.76H73.5401L74.6201 251.64L75.52 251.88L76.52 252.18H77.9001L78.5 252.42L79.5801 252.84L80.7201 253.44L81.7201 254.16L82.38 254.88L83.38 255.36L83.5 256.56L84.34 257.28L84.7601 258.28L84.88 259.28L84.7601 261.38L84.2201 262.46L84.5801 263.46L83.8601 264.54L83.0801 265.54L82.7201 266.2L81.7201 267.04L80.9401 267.76L80.34 268.42L78.96 268.66L78.06 269.2L77.28 269.68L77.1601 270.04L78.5801 270ZM74.5801 293.4L75.9001 293.16L78 293L79.14 292.52L79.8001 292.34L81.18 292.1L81.78 291.56L82.56 290.96L83.64 290.6L85.02 289.76L85.32 289.1L85.9801 288.5L86.9801 287.5L87.64 286.5L87.82 285.78L87.7601 284.58L88.24 283.8L88.7201 282.48L88.6 280.32L88.3601 279.48L88 278.32L87.9401 277.18L87.64 276.28L86.8601 275.68L86.2 274.68L85.1201 274L84.82 273.46L83.4401 272.8L82.84 272.32L82.06 271.9L80.68 271.48L79.9001 271.42L78.9001 271.06L77.7 270.88L76.8601 270.64L75.6601 270.46L74.34 270.58L73.4401 270.4L72.24 270.52L70.9801 270.22L69.3001 269.74L70.74 269.5L72.06 269.44L73.06 269.38L74.2601 268.96L75.5801 268.9L76.5801 268.48H77.24L78.74 268.06L79.9401 267.4L80.6601 266.92L81.14 266.14L82.2201 265.3L82.4001 264.52L83.24 263.52V261.3L83.7201 259.3L83.5401 258.3L83 257.1L82.1601 256.2L81.8001 255.48L80.6 254.88L80 254L78.68 253.64L78 253.3L76.8001 253L75.9001 252.7L74.52 252.82L73.4401 252.46L71.82 252.58L70.74 252.7H69L68.1 252.46L67.5601 252.4L66.0601 252.52L65 252.7L64.46 253.78L64.1 254.62L64.4001 255.7L64.46 256.78L63.8601 257.92L64.4001 259.12L64.16 260.12L64 261V262.26L63.8801 263.34L64.3 264.18L63.8801 265.44L64.3 266.34L63.94 267.66L64.3 268.56L64 269.64L64.2401 270.78L64.18 271.78L63.8801 272.78L64 274.04L64.0601 275.24L64.3601 276.14L64.3 277.28L64.18 278.28V279.28L64.48 280.36L64.18 281.56L64.48 282.56V283.88L64 284.92L63.8801 285.7L64 287V288L63.82 289.2L64.48 290.2L63.94 291.04L64.18 292.3L64.9001 293.3L66.16 293.48L67.5401 293.24H68.68L69.1 293.18L70.42 293.36L71.56 293.18L73.6601 293.24L74.5801 293.4Z" fill="black"/>
<path d="M128.86 256.6L127.96 255.52L127.36 254.68L126.04 254.08L125.32 253.6L124 253.3L123.16 252.88L122.38 252.34L121 252.46L119.68 252.1L117.52 252.22L116.98 252.28L115.42 252.46L115 253.06L114 253.48L112.5 253.84L111.66 254.38L110.66 254.92L110.18 255.64L109.18 256.48L108.52 257.14L108.1 257.74L107.38 258.88L106.38 259.48L106.2 260.62L105.2 261.22L104.6 262.22L104.66 263.42L104.06 264.42L103.22 265.42L103.46 266.2L102.74 267.4L102.32 268.48L102.02 269.56L102.38 270.56L101.72 271.56L101.66 272.56V273.94L101.48 275.8L101.96 276.88L102.08 278.26L101.96 279.04L102.56 280.3L102.62 281.2L102.92 282.34L103.1 283.34L103.76 284.34L104.06 285.34L104.54 286.34L105.74 287.34L105.8 288.06L106.8 288.84L107.8 289.44L108.46 290.34L109.6 290.82L110.6 291.54L111.5 292.08L111.98 292.68L113.3 292.86L114.62 293.28L115.7 293.64H116.78L117.44 293.82L119.84 293.94H121.04L121.7 293.7L123.8 293.4L124.88 293.04L125.78 292.44L127.22 292.26L127.58 291.66L128.84 291.06L129.5 290.34L130.58 289.5L131.24 288.78L132.32 287.88L131.6 289.2L131.24 289.98L130.76 290.88L129.68 291.6L129.02 292.26L128.02 292.8L126.76 293.04L125.86 293.76L125.08 293.88L124.08 294.06L122.94 294.6L122.16 294.48L120.84 294.78L119.84 294.9L117.74 294.72L116.74 294.78L115.18 294.48L114.1 294.36L113.62 294.06L112.36 293.58L111.7 293.28L110.56 292.68L109.24 292.08L108.7 291.66L107.92 290.82L107.2 290.34L106.36 289.56L105.7 288.72L104.92 288L104.2 286.92L103.42 286.08L102.94 285.08L102.82 284.36L101.92 283.16L101.32 282L101.2 281L101.26 280.1L100.72 278.9L100.9 277.82L100.48 276.82L100.42 275.82L100.66 273.66L100.3 272.34L100.84 271.44L101 270.4L100.88 269.2L101.42 268.06L101.54 267.22L102.2 266.22L102.44 265.02V264.02L103.22 263.12L103.76 262.22L104.12 261.22L104.48 260.32L105.68 259.24L105.86 258.46L107.06 257.46L107.18 256.46L108.08 256.04L109.16 254.96L109.52 254.48L111.02 253.64L111.8 253.34L112.8 252.62L113.34 252.14L114.84 251.66H116L117 251.24L117.78 251.06L120.36 251L121.2 251.24H122.58L123.58 251.84L124.72 252.08L125.62 252.56L126.7 252.8L127.36 253.64L128.26 254.42L129.1 255.14L129.94 255.8L130.06 256.7L130.6 258.38L129.22 257.06L128.86 256.6Z" fill="black"/>
<path d="M160.9 251.62H162.1L162.76 251.68L164.08 251.92L164.92 252.22L165.76 252.4L167.08 252.58L168.4 252.7L169.06 253.06L169.96 253.36L171.4 253.78L172.48 254.38L172.84 255.04L174.34 255.58L174.88 256.18L175.88 256.72L176.66 257.5L177.56 258.22L178.04 259L179.12 259.72L179.66 260.62L180.38 261.52L180.62 262.66L180.8 263.32L181.4 264.32L181.58 265.4L182 266.54L181.94 267.38L182.24 268.58L182.9 269.48L182.6 270.74L182.96 271.88V273.88L182.78 275.02L182.96 276.22L182.24 277.3L182 278.5L182.06 279.28L181.82 280.48L181.46 281.38L181.16 282.38L180.8 283.58L180.14 284.58L179.66 285.58L179.24 286.36L178.46 287.14L177.62 287.98L177.08 288.88L176.24 289.42L175.04 289.96L174.14 290.62L173.14 291.28L172.14 291.7L171.78 292.12L170.16 292.66L169.68 292.9L168.36 293.32L167.64 293.56L166.26 293.62L164.88 293.74L164.22 294.04H162.84L162.06 294.34H160.8L159.42 294.22H157.74L156.24 294.4L155.58 294.46L154.38 294.28L153.06 294.52L152.34 294.28H151.26L150.12 294.46L149.12 294.52L147.56 293.86L149.12 293.26H150L151.62 292.18L151.32 291.18L151.62 290.18V289L151.56 288.1L151.5 287.1L151.68 285.78L151.5 284.64L151.44 283.64L151.08 282.64L151.68 281.38L151.08 280.6L151.32 279.22L151.14 278.38L151.5 277.38L151.56 276.12L151.5 275.12L151.38 273.98L151.14 273.08L151.44 271.76L151.5 270.76L151.38 269.62L151.44 268.62L151.68 267.42L151.32 266.34L151.56 265.44L151.38 264.18L151.2 263.18L151.44 262.1L151.5 261.1L151.26 259.84V258.7L151.74 257.7L151.14 256.62L151.32 255.54L151.2 254.76L151.62 253.44L150.18 252.44L149.04 252.08L147.48 251.08H149.28L151.56 251.32L154.32 251.26L155.32 251.56L156.52 251.38H157.72L159.88 251.56L160.9 251.62ZM160.78 293.44L161.62 293.14L162.52 293.32L164 293L164.9 293.06L165.98 292.82L166.82 292.64L168.14 292.1L169.4 291.92L169.88 291.62L171.38 291.32L172.16 290.78L173.16 290.24L174 289.76L174.66 289.04L175.5 288.5L176.34 287.6L177.24 286.7L177.78 285.92L178.68 285.2L179.34 284.12L179.28 283.4L180.12 282.4L180.72 281.4L180.48 280.4L180.84 279.4L181.08 278.4L181.68 277.4L181.38 276.32L181.3 275L181.78 274L181.48 271.66L181.78 270.46L181.3 269.62L181.36 268.42L181 267.28L180.88 266.28L180.76 265.2L180.46 264.2L179.46 263.12L178.98 262.12L178.32 261.46L177.96 260.32L177.72 259.48L176.5 259L175.72 257.92L175.3 257.38L174.22 256.72L173.08 256.3L172.18 255.7L171.28 255.1L169.18 254.1L168.7 253.98L167.56 253.56L166.18 253.32L165.18 253.02L163.74 252.9H162.9L162 252.72L160.62 252.54L159.36 252.36L157.02 252.54L156.3 252.42L155.4 252.36L153.66 252.54L152.52 252.42L152.58 253.74L152.64 254.74L152.34 255.74L152.4 257L152.52 257.84L152.16 258.84L152.52 260.04L152.4 261.3L152.52 262.38L152.46 263.38L152.28 264.46L152.4 265.46L152.58 266.54L152.16 267.54L152.22 268.68L152.7 269.68L152.16 270.94L152.1 271.84L152.7 272.98L152.22 274.18L152.1 275.18L152.22 276.08L152.58 277.28L152.76 278.18L152.52 279.44L152.7 280.64L152.28 281.64L152.52 282.64L152.28 283.9L152.58 284.9L152.1 285.8L152.58 286.88L152.1 288.02L152.76 288.92L152.4 290.06L152.7 291.26L152.4 292.46L153.12 293.24L154.12 293.36L155.56 293.24L156.22 293.42L157.12 293.3L159.22 293.48L160.78 293.44Z" fill="black"/>
<path d="M213 293.86L212.4 292.86L210.96 292.26L209.7 292.86L209.22 293.28L208.08 293.58L207.3 293.76L206.04 293.94L205.2 294.12L204.3 294.24L201.72 294.36H200.72L199.94 294.18L198.5 293.7L197.3 293.28L196.7 292.8L196.1 292.02L195.1 291.02L195.28 290.12L194.56 288.92L195.16 286.76L195.64 285.86L195.94 285.2L196.66 284.2L197.02 283.36L198.02 282.58L198.32 282.04L199.22 281.38L200.36 280.72L201.36 280.36L202.02 279.94L203.02 279.58L204.28 279.1L205 278.92L206.2 278.44L206.98 278.32L208.36 278.14L210.58 277.72L211.84 277.24L211.72 275.62L211.12 274.78L211.42 273.7L211.24 272.44L210.94 271.78L210.16 270.64L209.26 269.92L208.9 269.08L207.7 268.54L207.16 268.36L206.16 267.94L203.76 267.88L202.76 268.36L201.86 268.84L200.36 269.08L200 269.56L199.1 270.22L197.96 271.22L197.3 271.94L196.76 273.56L196.34 272.42L196.88 271.42L197.36 270.52L198.36 269.62L198.78 268.96L199.92 268.42L200.46 267.88L201.6 267.52L202.44 267.34L203.64 267.1L206.94 267.16L207.94 267.7L209.14 267.94L209.68 268.84L210.34 269.5L211.24 270.5L211.54 271.22L212.44 272.48L212.32 273.56L212.56 274.46L212.86 275.66L212.5 278L212.44 278.84L212.68 279.92L212.62 281.12L212.44 282.2L212.68 282.92L212.98 284.12L212.44 285.2V286.2L212.38 287.2L212.62 288.28L213.04 289.28L212.92 291.56L213.34 292.7L214.78 294.14L213 293.86ZM205.26 293.44L206.26 293.02L207.16 292.6L208.9 292.54L209.56 291.88L210.56 291.7L211.46 290.7L211.7 289.38L211.64 288.18L211.94 287.1L211.46 286.02L211.58 284.88L211.76 283.74L211.7 282.66L211.76 281.82L211.64 280.74L211.7 279.6L210.8 278.76L209.36 278.82L208.52 279L207.52 279.48L206.68 279.54L205.18 279.96L203.98 280.5L203.62 280.74L202 281L201.58 281.78L200.38 282.2L199.84 282.86L198.84 283.58L197.84 284.24L197.18 285.08L196.4 286.16L196.22 286.94L195.74 289.04L196.04 290.12L197.04 291.12L197.4 291.78L198.66 292.38L199.38 293.04L201 293.28L202.08 293.52L204.6 293.28L205.26 293.44Z" fill="black"/>
<path d="M243.76 267.46L244.66 267.82L245.92 268.12L246.92 268.9L247.58 269.56L248.36 270.34L248.78 271.18L249.38 271.84L250.1 273.04L250.34 273.76L251.06 275.08L251.12 275.8L251.6 277.12L252.02 277.96L251.72 279.04L252.26 280.36L251.78 282.46L252.2 283.46L251.84 284.54L251.3 285.62L250.94 286.46L251 287.54L250.1 288.54L249.62 289.32L248.96 290.16L248.78 291.16L247.7 291.76L247.1 292.48L246.56 292.9L245.48 293.56L244.34 294.1L243.44 294.28L242.18 294.46L239.12 294.4L237.68 294.1L236.68 293.8L236.02 293.32L234.82 292.48L233.98 292.06L233.62 291.34L232.54 290.2L231.88 290.26L231.52 291.46L231.4 292.3L230.68 293.38L230.32 294.16L228.82 294.4L229.6 292.9L230.5 292.06L230.56 291.06L230.86 289.92L231.34 288.6L231.28 286.92L231.46 286.32L231.52 285.48L230.98 284.48L230.86 283.34L231.28 282.26L231.22 281L231.34 280.1L231.22 278.9L231.16 277.9L231.4 276.76L230.86 275.86L231.28 274.48L231.04 273.48V272.5L231.46 271.3L231.1 270.16L230.92 269.08L231.4 268L231.28 266.92L231.52 265.84L230.92 264.84L231.4 263.76V262.5L230.92 261.6L230.98 260.4L231.22 259.4L230.86 258.26L231.04 257.12L231 256L231.12 255L231.3 253.92L230.88 252.78V250.78L230.22 249.7L229.92 248.8L231.42 249.4L232.32 250.48V253L232.08 253.84L231.9 255.22L232.5 256.22L232.32 257.3V258.5L232.2 259.34L232.26 260.48L231.84 261.56L232.2 262.82L232.38 263.82L231.84 264.9L232.08 265.9L231.96 267.04L232.02 268.18L232.26 269.18L232.08 270.26L232.2 271.46L232.98 271.82L233.28 270.82L234 270.28L234.78 269.56L236 269L236.9 268.58L237.62 268.16L238.52 267.68L239.96 267.56L240.96 267.08H242.64L243.76 267.46ZM243.1 293.46L244.1 293.04L245.24 292.38L245.9 291.9L247.04 291.12L247.94 290.28L248.48 289.5L249.26 288.72L249.38 287.82L249.74 286.68L250.22 285.78L250.28 284.58L250.76 283.44L250.7 282.44L250.88 280.16L251.12 279.32L250.58 278.12L250.7 276.92L250.22 275.92L249.5 275.02L249.56 273.82L248.42 272.74L248.36 272.08L247.16 270.88L247.04 270.16L246.14 269.56L244.64 269.02L243.8 268.54L242.72 268.24L240.5 268.42L239.78 268.66L238.4 268.78L237.56 269.32L236.24 269.92L235.7 270.52L234.7 271.36L233.92 272.14L233.14 272.98L232.9 273.98L232.3 274.64L232.12 276.98L232.48 278.12L232.42 278.9L232.3 280.22L232.12 281.3L232.18 282.3L232.42 283.3L232.12 284.44L232.06 285.58L232.12 287.58L232.84 288.66L233.26 289.66L233.86 290.44L234.22 291.28L235 291.94L236.26 292.24L236.74 292.72L238.24 293.26L238.84 293.38L239.84 293.74L242.12 293.56L243.1 293.46Z" fill="black"/>
<path d="M281.38 269.68L280.24 268.9L278.8 268.18L278.26 267.94L275.8 267.88L274.66 268.12L273.46 268.48L272.68 268.96L271.96 269.32L271.12 270.1L270.22 270.64L268.96 271.3L268.78 272.02L267.94 272.92L267.28 273.92L267.04 274.76L265.96 275.6L266.08 276.74L265.08 277.52L264.78 278.66L265.14 279.8L264.4 281L264.76 282L264.94 283.92L264.52 285.24L264.82 286.24L265.24 287.24L265.72 288.24L266.26 289.38L266.44 290.22L267.16 290.94L268.3 291.78L268.72 292.2L269.8 292.98L270.7 293.34L272.26 293.46L273.4 293.64L274.3 293.76L276.64 293.64L277.54 293.76L278.86 293.28L279.86 293.04L280.86 292.68L281.46 292.2L283.56 291.66L282.42 292.86L281.88 293.52L280.5 293.88L279.3 294.12L278.7 294.48L277.38 294.72L276.12 294.78L274.26 294.84L273.36 294.78L272.36 294.3L271.22 294.18L270.32 294.06L269.48 293.46L268.48 293.04L267.1 292.5L266.68 291.84L265.68 291.12L265.2 290.28L264.42 289.14L264.24 288.24L263.82 287.34L263.94 286.2L263.4 285L263.7 284.16L263.28 282L263.76 280.68L263.4 279.9L264 278.9L264.42 277.52L264.96 276.52L265.02 275.62L265.26 274.84L265.86 273.84L266.4 272.84L267.48 271.84L267.9 271.06L268.74 270.52L269.4 269.52L270.72 269.1L271.72 268.5L272.2 268.02L273.7 267.78L274.18 267.3H275.26L278.02 267.24L278.68 267.36L279.68 267.6L281.12 268.26L281.78 268.92L282.14 269.7L283.22 270.78L282.44 272.1L281.66 270.66L281.38 269.68Z" fill="black"/>
<path d="M317.14 294.28L316.06 293.28L315.94 292.38L315.1 291.38L314.56 290.9L313.66 291.74L313.18 292.4L312.28 293.18L310.78 293.48L309.78 294.08L308.94 294.38L308.1 294.68L304.68 294.5L303.68 294.32L302.18 293.84L301.76 293.66L300.38 293.12L299.84 292.46L298.64 291.8L297.92 290.96L297.38 290.18L296.78 289.46L296.66 288.32L296.24 287.18L295.7 286.46V285.14L295.22 284.14L295.34 283.14L295.4 280.98L295.52 279.72L296 278.82L295.94 277.92L296 276.78L296.24 275.78L297.24 274.7L297.18 273.98L297.9 272.78L298.56 272.18L298.98 271.28L299.7 270.28L300.6 269.56L301.14 268.96L302.14 268.42L304.14 267.7L305.14 267.4L307.24 267.22L308.44 267.46L309.64 267.76H311L312 268.3L312.3 268.84L313.68 269.38L314.34 270.1L315.18 269.92L314.82 268.92V267.84L314.64 266.7L314.82 265.38L314.76 264.3L314.88 263.46L314.76 262.08L315.3 260.94L314.76 259.94L314.94 258.86L315.12 257.86L315.06 256.72L314.88 255.58L314.7 254.58V252.4L315.42 250L315.9 249L316.5 249.72L316.44 250.44L315.78 252.24L316.14 253.24L315.84 254.38L315.78 255.52L316.2 256.52L316.26 257.52L315.78 258.6L316.26 259.74L315.72 261L315.96 261.78L316.08 262.92L315.96 263.92L315.72 266.02L316.08 267.4L315.78 268.48L316.2 269.48L315.9 270.38L315.72 271.64L315.78 272.54L315.72 273.68L315.78 274.88L316.08 275.6L316.02 276.74L315.78 277.74L316.2 279.06L316.14 279.96L315.72 280.96L315.84 281.96L316.32 283.16L316.2 284.24L316.14 285.44L316.26 286.52L316.02 287.36L316.08 289.7L316.44 290.7L316.74 291.6L316.92 292.68L317.82 293.34L318.48 294.66L317.14 294.28ZM309.04 293.44L309.94 292.96L310.84 292.6L311.84 292.06L312.84 291.28L313.44 290.74L314.28 289.9L314.82 288.9L314.88 287.76L314.76 286.56L315.12 285.42L315.3 284.58L314.94 282.18L314.82 281.18V280.18L314.7 279.1L314.88 277.9L315.24 276.82L315 276L314.64 274.68L314.94 273.68L314.88 272.48L313.8 271.4L313.5 270.74L313.08 269.74L312 269.32L310.8 268.84L309.48 268.42L308.34 268.3L307.5 268.42L305.16 268.36L304.38 268.48L303.06 268.9L302.16 269.62L301.68 270.34L300.78 271.12L300 272L299.64 272.6L298.64 273.74L298.28 274.64L297.98 275.54L297.26 276.54L297.32 277.68L296.6 278.76L296.48 279.76L296.3 280.84L296.78 283.3L296.9 284.38L296.78 285.38L296.66 286.28L297.56 287.42L297.44 288.42L298.34 289.42L298.94 290.62L300.56 291.82L301.34 292.72L302.12 293.08L303.12 293.44L304.2 293.56H305.34L307.86 293.8L309.04 293.44Z" fill="black"/>
<path d="M34.72 354.72L34.36 355.72L34.24 356.98L34.12 357.88L34.3 358.96V360.16L33.88 361.06L33.46 362.06V363.2L32.98 364.1L32.86 365.1L32.5 366.18L31.84 367.32L31.24 368.16L30.4 369.24L29.74 370.02L29.2 370.92L28.42 371.64L27.76 372.24L26.62 372.9L26.32 373.56L24.76 374.16L24.34 374.4L23.02 374.76L20.62 374.52L19.9 374.4L19 374L18 373.64L17 373.28L16.16 372.8L15.5 371.9L14.5 371.12L14.14 370.28L13.24 369.5L12.64 368.6L12.28 367.76L11.8 366.56L11.02 365.66L11.08 364.66L10.3 363.4L9.82 362.4L10.12 361.32L9.52 360.32L9.58 359.18L9 357.9L9.42 356.9L9 355.86V354.66L9.3 352.38L9.18 351.6L9.06 350.22L9.36 349.44L9.66 348.18L9.42 347.28L10.18 346L10.06 344.92L10.72 343.78L10.78 342.88V342L11.08 341L12.22 340L12.28 339L12.88 338.1L13.36 336.9L13.84 336.3L15.04 335.46L15.76 334.56L16.24 333.84L17.24 333.12L18.86 332.12L19.86 331.52L21.18 331.22L23.18 331.46L23.84 331.64L25.34 331.76L25.88 332.42L27.08 332.66L27.98 333.5L28.46 334.28L29.18 335L30.18 335.6L30.96 336.44L31.08 337.64L31.92 338.36L31.98 339.56L32.76 340.46L32.88 341.36L33.06 342.5L33.78 343.58L33.72 344.66L34.38 345.86L34.2 346.86L34.38 347.94L35 349L35.12 350.08L34.58 351.46L35.06 353.62L34.72 354.72ZM33.52 350.22V348L33.16 347L33.4 346.22L33.1 345.08L32.38 343.88L32.74 342.8L32.02 341.96L31.78 340.88L31.6 339.98L31.12 338.78L30.64 337.88L29.92 337.22L28.84 336.14L28.48 335.36L27.88 334.52L27.16 333.98L25.84 333.2L24.7 332.96L23.8 332.36L22.8 332.12L21 332.36L19.68 332.48L19.02 332.78L18.48 333.44L17.48 334.1L16.64 334.64L15.92 335.48L15.14 336.48L14.78 337.32L14.12 338.32L13.4 339.1L12.74 340.1L12.26 341.1L11.84 342.24L12.14 343.14L11.24 344.14L11.54 345.22L11.12 346.22L10.9 347.1L10.66 348.42L10.24 349.2L10.3 350.52L10.24 351.52L10.12 352.36L9.94 354.82L10.42 355.82V356.82L10.36 357.82L10.72 358.82L10.54 359.96L11.26 361.1L11.02 362.1L11.56 363.18L12.1 364.26V365L12.58 366.26L12.76 367.1L13.66 368.18L14.08 369.02L14.68 369.68L15.52 370.76L16.18 371.3L17.18 372.02L17.84 372.62L19.1 373.1L19.94 373.58L20.6 373.46L22.88 373.64L24.26 373.28L25.58 372.56L26.9 372.02L27.74 371.36L28.04 370.58L28.94 369.58L29.72 368.8L30.14 367.8L30.32 366.8L30.98 365.96L31.22 364.82L31.82 364.04L32.24 362.78L32.48 361.78L32.84 360.94V360L33.2 358.74L33.56 357.9L33.74 356.9L33.5 355.9L33.8 354.7L33.44 353.56L33.8 351.46L33.52 350.22Z" fill="black"/>
<path d="M65.7401 374.46L63.3401 374.34L62.7401 374.22L61.3001 374.4L60.0001 373.86L61.5001 373.44L63.0001 372.44L62.7601 371.3L63.4201 370.16L63.0601 369.16L62.8201 368.26L62.9401 367.18L63.3001 365.8L63.1801 364.96L63.4201 363.88L63.2401 362.56L62.7601 361.78L63.0601 360.7L62.9401 359.62L63.2401 358.62L63.3001 357.24L62.9401 356.46L63.0001 355.32L63.0601 354L63.1801 352.92L63.0001 352.14L62.9401 350.88L63.0001 349.88L63.3601 348.68L62.7601 347.68L62.8201 346.48L62.9401 345.48L63.0001 344.34L63.1801 343.34L62.9401 342.26V341.18L63.2401 340.18L63.0001 339.18L62.9401 337.8V337.02L63.3601 335.82L63.0601 334.82L63.0001 333.82L61.8601 333.04L61.0801 333.52L60.0801 333.64L59.1801 334.12L57.5601 333.82L58.8201 333.22L60.3801 332.62L61.3801 332.44L61.9801 331.84L64.0801 331L63.9601 332.56V333.82L64.0801 334.96L64.4401 335.74L64.1801 337L64.4201 338L64.0001 339.24L64.1801 340.24L63.9401 341.5L64.3601 342.28L64.4201 343.48L64.0001 344.58V345.78L63.9401 346.62L64.3601 347.76V348.9L64.4201 349.98L63.9401 350.82L64.1201 351.9L63.8201 353.16L64.3601 354.3L63.9401 355.3V356.2L64.0001 357.4V358.6L63.8201 359.5L64.4801 360.5L63.8201 361.82L64.3001 362.82L64.4801 363.96L64.3601 364.96L64.4801 366.1L64.1801 367.18L63.8801 368.18L63.8201 369.32V370.22L64.2401 371.22L64.3001 372.48L65.3001 373.48L67.1601 374.08L65.7401 374.46Z" fill="black"/>
<path d="M114.28 373.62L113.44 374.1L112.24 374.34L109.96 374.16L108.88 374.4L107.74 374.22L106.48 374.34L105.34 374.22L104.5 374.16L103.18 374.34L102.28 374.4L101.28 374.28L99.9999 374.4L98.4999 374.16L96.7599 374.4L95.7599 374.34L94.2599 374.46L92.6399 374.1L92.7999 373L93.3999 372.1L93.8199 371.32L93.9399 370.32L94.9399 369.24L95.9399 368.34L96.0599 367.56L97.1399 366.72L98.1399 366L98.5599 365.22L99.0399 364.32L100.24 363.32L100.54 362.66L101.32 361.82L102.04 360.82L102.76 360.34L103.6 359.2L104.26 358.6L104.74 357.6L105.64 356.76L106.54 355.92L107.08 355.08L107.44 354.3L107.86 353.3L109 352.3L109.3 351.46L109.48 350.38L110.2 349.54L110.5 348.7L110.8 347.56L111.4 346.56L111.76 345.42L111.4 344.34L111.7 342.42L111.58 341.34L111.22 339.96V338.96L111.4 338.12L110.5 336.98L110.02 336.14L109.66 335.24L108.66 334.46L107.88 333.46L107.34 332.98L106.56 332.62L105.56 332.14L104.42 332.08L102.2 331.9L101.2 332.44H99.7599L98.6799 333.1L98.1399 333.76L97.1399 334.24L96.1399 335.14L95.8399 335.8L94.9999 336.52L94.3999 337.6L94.0399 338.74L94.3999 339.82L93.6799 341.26L92.9999 339.84L93.1799 338.58L93.7199 337.68L93.8399 336.68L94.8399 335.84L95.5599 335L96.3999 334L96.9399 333.58L97.9399 332.8L98.5999 332.38L99.5999 332.02L100.8 331.42L101.8 331.48L104.5 331.18L105.34 331.54L106.18 331.72L107.56 332.08L108.7 332.68L109.54 333.28L110.02 334.12L110.38 335.12L111.38 335.96L111.5 336.8L112.04 337.88L112.52 339.26L112.88 340.1L113 341.3V342.56L112.52 344.48L112.88 345.74L112.28 346.88L112.34 347.78L111.5 348.86L111.32 349.94L110.9 350.78L110.54 351.68L109.54 352.68L109.12 353.58L108.94 354.58L108.22 355.36L107.14 356.56L106.84 357.16L106.42 358.06L105.7 359.06L104.7 359.66L104.16 360.5L103.5 361.64L102.96 362.3L102.06 362.96L101 364L100.64 364.72L99.7399 365.44L99.0799 366.22L98.2399 367.12L97.1599 367.96L96.5599 368.96L96.0799 369.62L95.5399 370.34L94.6399 371.54L94.2799 372.2L94.8199 373.4L95.8199 373.46L97.1999 373.22H97.9199L99.0599 373.4L100.38 373.46L101.58 373.4L102.48 373.46L103.68 373.22L104.4 373.16L105.66 373.34H106.56L107.64 373.16L108.84 373.34H109.68L111.84 373.4L112.84 373.04L113.98 372.92L115.42 372.44L114.28 373.62Z" fill="black"/>
<path d="M147.46 349L148.36 349.54L149.86 349.78L150.94 350.32L151.72 350.74L152.62 351.4L152.98 352.48L153.64 353.26L154.48 353.8L155.14 355L155.2 355.78L155.98 356.78L155.68 357.92L156 359L156.06 360L156 362.1L156.42 363.3L155.94 364.14L155.46 365.46L155.22 366.46L154.86 367.46L154.56 368.6L153.9 369.5L153 370.28L152.46 371.06L151.62 371.72L151.08 372.44L150 373L148.68 373.36L148.02 374.02L146.7 374.14L145.92 374.62L144.72 374.5L142.26 374.62L141.36 374.5L140.16 374.32L139.16 374.02L137.72 373.84L136.72 373.18L135.94 372.82L135.1 372.04L134.1 371.44L132.96 370.84L132.72 369.28L134.34 370.18L135.06 370.9L135.96 371.56L136.96 372.1L137.8 372.64L139.18 373.06L139.78 373.54L141.52 373.66L142.36 373.54H144.36L145.62 373.6L147 373.42L147.78 373L148.92 372.64L149.82 372.1L150.18 371.44L151.18 370.72L152.44 369.94L152.8 369.16L153.4 368.32L153.94 367.12L154.36 366.4L154.72 365.14L154.84 364.3L155.2 362.98L154.96 362.08L155.08 360.08L154.78 358.94L154.9 357.74L154.84 356.74L153.94 355.74L153.4 354.74V354.08L152.74 353.18L151.84 352.58L151.18 351.86L149.8 351.08L149.08 350.6L148.3 350.06L146.98 349.82L146.44 349.7L144.1 349.82L143.1 349.88L141.54 350.12L140.64 350.24L139.74 350.72L138.54 351.02L139.44 350.02L140.22 349.6L141.22 349.36L142.12 348.82L143.2 348.4L144.04 348.34L145.48 347.86L146.08 347.2L146.8 346.42L147.46 345.7L148.46 345.04L149.18 344.26L149.48 343.26L150.38 342.26L150.5 341.26L150.38 340.18L150.98 338.18L150.74 336.92L150.14 335.92L149.6 335.08L148.94 333.94L148.46 333.28L147.08 332.92L146.18 332.5L145.04 332.26L143.04 332.08L142.2 332.26L140.82 332.86L140.22 333.34L139.44 334.06L138.24 334.6L138 335.44L137.34 336.34L136.26 337.54L135.42 338.54L135.78 336.98L135.96 336.14L136.68 335.06L137.4 334.4L137.94 333.56L139.26 332.84L139.68 332.36L141.24 331.94L141.84 331.46L142.98 331.34L144.9 331.22H146.28L146.94 331.52L148.02 332.3L148.86 332.54L149.86 333.54L150.7 334.08L151.3 335.16L151.48 336.06L151.66 336.96L151.96 338.28L152.14 340.44L151.96 341.44L151.3 342.52L151.24 343.36L150.58 344.5L149.68 345.22L148.84 346.12L148.6 346.78L147.1 347.38L146.38 348.1L146.92 348.82L147.46 349Z" fill="black"/>
<path d="M199.84 362.34L198.34 362.82L197.2 363L194.92 362.88L193.78 363L193.36 363.06L191.68 363H190.9L189.76 363.84L190 365.1L189.88 365.94L190.3 366.94L190.36 368.2L190.24 369.28L189.94 370.12L190.24 371.26L189.82 372.46L191.02 373.3L192.46 373.66L190.84 374.26L189.84 374.14L188.58 374.32L188.1 374.38L186.1 373.9L188.2 373.36L188.74 372.36L188.68 371.1L189.28 370.1L189.34 369.2L189.04 368.2L189.1 367.2L188.68 366.06L189 365L189.12 364L187.68 362.86L186.42 363.1L185.76 362.86L184.86 362.8L183.78 363.04L182.1 363.1L180.96 362.98L180.18 362.86H178.18L176.98 362.8L175.48 363.1L174.88 362.86H173.62L172.24 362.98L171.24 362.92H169.8L170.58 361.3L171 360.3L171.18 359.7L172.32 358.7L172.68 357.7L173.16 356.7L173.52 355.8L174.06 354.9L175.14 353.9L175.62 353L176.1 352.16L176.76 351.38L177.42 350.54L177.48 349.4L177.96 348.5L178.56 347.6L179.56 346.88L179.98 345.68L180.64 344.78L181 344L181.36 343.28L181.9 342.28L182.62 341.5L183.04 340.42L183.76 339.64L184.6 338.74L185.32 337.84L185.26 337L186.4 336L186.52 335.16L187.42 334.16L187.6 333.16L188.8 332.16L189.52 330.72L189.94 332.82L189.7 333.82L190.12 335.02V335.86L189.88 337.12L189.82 337.96L190.06 339.28L190.3 340.28L190.24 341.36L189.7 342.5L190.12 343.64L189.88 344.54L190.06 345.68L189.88 346.76L190.24 347.84L190.12 349.16L189.82 350L190 351.14L189.88 352.4L190.12 353.24V354.44L189.82 355.58L190.36 356.58L190.3 357.58L190.12 358.66L190 359.86L190.06 360.86L191.06 362.12L191.78 362H193L194.08 361.82H195.08L196.82 361.94L198.08 361.76L199.34 361.58L200.42 361.16L199.84 362.34ZM173.08 362.1L174.28 362.04L175 361.86L176.26 362.1L177.34 362.04L178.34 361.86L179.54 362.1L180.54 361.98H181.74L182.74 362.16L183.82 362.04L184.96 361.86H186L186.66 361.92L187.66 362.1L188.8 361L188.74 359.86L188.8 358.6L189.22 357.82L188.86 356.68L189.04 355.48L188.86 354.34L188.8 353.26V352L188.86 350.92L188.62 349.92L189.22 348.72L188.86 347.58L188.8 346.58L188.86 345.68L188.74 344.3L189.1 343.3V341.3L188.62 340.22L189 339L188.88 337.86L189 336.96L189.06 335.64L188.64 334.74L188.34 334.62L187.86 335.52L186.96 336.52L186.6 337.24L185.76 338.02L185.4 339.28L184.74 340.18L184.26 340.78L183.9 341.98L183.24 342.88L182.76 343.6L182.16 344.6L181.44 345.5L180.84 346.5L180.48 347.4L179.4 348.4L179.04 349.4L178.56 350.06L177.9 350.9L177.06 352.1L177 352.94L176.34 353.94L175.5 354.6L175.14 355.5L174.42 356.7L173.64 358.44L173.1 359.34L172.5 360.12L171.78 361.02L172.38 362.1H173.08Z" fill="black"/>
<path d="M227.92 346.8L228.92 346.86L230.24 347.28L230.72 347.64L231.8 348.24L232.58 349.02L233.66 349.74L234.38 350.58L234.98 351.58L235.46 352.48L235.4 353.48L236 354.32L236.54 355.4L236.78 356.48L236.66 357.68L236.72 358.58L236.84 361.1V361.88L236.24 363.26L236.66 364.34L235.76 365.42L235.64 366.42L235.04 367.32L234.68 368.52L234.08 369.3L233.36 370.02L232.76 370.86L232.1 371.7L230.78 372.42L230 372.84L229.28 373.5L227.9 374.1L227.06 374.22L226.28 374.52L224.72 374.46L222.86 374.64L221.86 374.34H220.42L219.22 374.04L218.5 373.62L217.72 373.14L216.72 372.36L216.18 371.76L215 371V370.28L214.34 369.28L213.74 368.28L213.86 366.72L215.12 368.4L215.6 369.3L216.08 370.2L216.8 371.2L217.58 371.8L218.84 372.4L219.14 372.82L220.52 373.3L221.52 373.66L222.72 373.78L224.82 373.66H225.72L227.22 373.24L227.94 372.82L229.02 372.4L229.74 371.86L230.88 371.32L232.02 370.72L232.68 369.88L232.8 368.88L234 367.98L234.06 367.32L234.96 366.06V365.16L235.14 364.16L235.86 363.16L235.98 362.16L235.5 360.84L236.16 358.68L235.74 357.68L235.5 356.54L235.68 355.64L235.02 354.64L234.96 353.74L234.18 352.74L233.76 351.96L233.28 350.82L232.56 350.22L231.24 349.44L230.82 348.78L229.68 348.42L229.08 348.06L227.7 347.58L226.62 347.4L224.88 347.34L223.62 347.52L222.54 347.82L221.28 348.24L220.28 348.36L219.14 349.08L217.82 349.56L216.56 350.76V349L216.74 347.86L216.62 347.02L216.98 345.7L217.34 344.7L217.1 343.7L217.28 342.44L217.76 341.54L218.12 340.46L217.94 339.38L218.42 338.54L218.18 337.22L218.9 336.38L218.72 335.38L219.26 334.12L219.56 332.98L219.44 331.66H221.3L222.14 331.78H223L224.08 331.54L225.52 331.66L226.12 331.54L227.32 331.6L229.6 331.78L230.68 331.48L232.96 331.6L236.2 331L235.2 332.08L234.12 332.56L233 332.4H230.42L229.34 332.46L228.56 332.52L227.66 332.64L225.92 332.7L225.2 332.58H223.7L223.16 332.52L221.42 332.7L220.16 333.6L220.04 334.68L219.74 335.94L219.68 336.72L219.2 337.92L219.08 339.18L218.9 340.08L219.02 341.28L218.54 342.28L218.24 343.18L218.54 344.26L218.12 345.52L217.7 346.42L217.76 347.5L218.76 348.22L219.36 347.8L220.36 347.26L222.76 346.6L223.3 346.42L224.86 346.3L226.96 346.36L227.92 346.8Z" fill="black"/>
<path d="M268.42 348.06L269.86 348.48L270.76 348.66L271.96 349.08L272.38 349.68L273.94 350.52L274.42 351.12L275.08 352.12L275.5 352.9L276.76 353.68L276.88 354.58L277.06 355.58L277.42 356.66L278.2 357.86L278.08 359.06L278.56 360.06L278.14 362.22L278.32 363.22L278.44 364.42L277.78 365.42L277.36 366.2L277.12 367.34L276.64 368.48L275.98 369.14L275.68 370.04L274.78 370.94L274.48 371.66L273.16 372.56L272.62 372.92L271.96 373.46L270.76 373.88L269.92 374.18L268.6 374.54H267.7L265.42 374.72L264.34 374.54L263.62 374.18L262.48 374L261.16 373.58L260.26 372.92L259.96 372.38L258.96 371.72L258.24 371.18L257.46 370.18L257.28 369.18L256.56 368.58L255.96 367.58L255.6 366.32L255 365.32L254.88 364.32L255.12 363.32L254.64 362.32L254.76 360.16L254.7 359.16L254.82 358.08L255.12 356.88L255.18 355.62V354.78L255.66 353.52L256.08 352.52L256.14 351.44L256.56 350.44L256.68 349.3L257.28 348.46L257.88 347.38L258.06 346.38L258.42 345.66L259.32 344.66L259.44 343.66L260.22 342.52L260.58 341.8L261.58 340.66L262.42 339.82L262.96 338.98L263.32 338.26L264.04 337.26L264.94 336.72L265.66 335.72L266.66 335.12L267.26 334.22L267.86 333.62L268.94 333.26L269.78 332.66L270.78 332.24L272.22 331.64L273.9 331.58L272.28 332.58L271.56 332.94L270.18 333.3L269.4 334.14L268.92 334.68L267.54 335.1L267.24 335.76L266.16 336.66L265.74 337.5L264.9 338.1L264.18 339L263.4 339.72L262.98 340.62L261.98 341.52L261.8 342.52L261.32 343.36L260.66 344.2L260.3 345.2L259.52 346.1L259.28 347.3L258.62 348.2L258.32 349.34L257.96 350.18L257.78 351.18L258.08 351.36L259.08 350.88L259.62 350.1L260.62 349.44L261.28 349.14L262.18 348.72L263.68 348.3L264.68 348L265.34 347.94L267.98 347.88L268.42 348.06ZM268.6 373.44L269.68 373.26L270.94 372.9L271.72 372.24L273.04 371.58L273.34 370.8L274.42 370.08L275.14 369.42L275.2 368.42L275.8 367.28L276.46 366.2L276.58 365.42L276.82 364.16L277.54 363.08L277.6 362.18L277 360L277.3 358.86V357.86L276.88 356.96L276.16 355.82L276.04 354.92L275.68 354.02L274.54 353.02L274.06 352.12L272.98 351.4L272.2 350.86L271.78 350.26L270.58 349.84L269.86 349.24L268.54 349.12L267.4 349.06L265.72 348.88H264.22L263.68 349.42L262.3 349.66L261.3 350.2L260.46 350.56L259.8 351.16L258.96 351.94L257.7 352.84L257.16 353.84L256.92 354.68L256.2 355.68L256.14 356.94L255.9 358.08V358.86L256.08 360.06L256.32 362.22L255.96 363.22L256.38 364.22L256.68 365.22L256.8 366.48L257.1 367.48L258 368.38L258.36 369.46L258.96 370.12L259.5 370.9L260.58 371.56L261.42 372.46L262.62 372.82L263.16 373.18L264.78 373.3L265.5 373.6L267.6 373.54L268.6 373.44Z" fill="black"/>
<path d="M319.78 333.12L319.18 334.12L318.4 335.26L318.1 336.26L317.86 337.4L316.86 338.06L316.32 339.2V340.2L315.84 341.28L315.06 342.18L314.82 343.18L314.58 344.08L313.86 345.08L313.56 346.08L313.08 347.08L312.54 348.08L312 349L312.06 350L311.06 351.08L310.64 352.08L310.7 353.22L310.34 353.94L309.86 354.94L309.26 356.08L308.54 357.22L308.3 358.06L308.24 359.2L307.82 359.98L307.34 361.3L307.22 362.2L306.32 363.28L306.26 364.12L305.84 365.38L305.36 366.28L305.42 367.18L304.7 368.44V369.44L304.58 370.22L303.86 371.54L303.38 372.62L303.2 373.34L303 375L302.46 373.68L302.4 372.96L302.46 371.82L302.82 370.82L303.3 369.82V368.92L303.96 367.78L304.38 366.7L304.5 365.7L305.16 364.62L305.4 363.54L305.82 362.54L306.12 361.54L306.24 360.54L306.66 359.4L307.02 358.4L307.44 357.5L308.22 356.5L308.46 355.42L309 354.42L308.94 353.16L309.48 352.26L310.08 351.18L310.74 350.28L310.62 349.38L311.22 348.18L311.88 347.18L311.94 346.28L312.66 345.14L313.26 344.3L313.8 343.3L313.86 342.1L314.52 341.02L314.58 340.12L315.66 338.02L316.2 337.3L316.56 336.22L317.1 335.32L317.94 334.18L318.24 333.18L317.7 332.18L316.44 332.3L315.44 332.42H314.36L313.04 332.24H312.44L311.44 332.12L310.06 332.36L308.86 332.18L308.14 332.12H306L305.16 332.36L303.96 332.42L301.74 332.12L300.84 332.3L298.56 332.36L297 332L296.16 331.1H297.36L298.36 331.46H300.94L301.72 331.4L302.72 331.46L304.28 331.52H304.7L306.08 331.4L307.52 331.64H308.6L309.32 331.7L310.52 331.64L311.96 331.4L312.62 331.52L314 331.7L314.84 331.52L316.22 331.64L317.22 331.7L318.48 331.58H319.62L319.78 333.12Z" fill="black"/>
<g clip-path="url(#clip0_1736_912)">
<path d="M225 418H105V448H225V418Z" fill="black"/>
<path d="M171.2 440.74L171 441L170.4 441.12H169.9L169.7 441.18H169.26H168.76H168.1L168.22 440.86L168.28 440.5L168.96 440.4L169.2 439.96L169.12 439.56L169 439.22L169.1 438.98L169.26 438.58L169.06 438.2V437.88V437.56V437.16L169.18 436.7L169 436.48V436.14L169.24 435.78L169.06 435.32L169.26 434.94L169.1 434.58L169.28 434.26L169.16 433.86L168.84 433.54L168.4 433.62L167.92 433.56H167.66L167.42 433.62L166.8 433.56H166.54H166.2H166H165.64L165.2 433.5H164.86L164.62 433.62L164 433.52L163.64 433.6L163.48 433.5H162.84L162.74 433.56L162.24 433.64H161.9H161.5L161.12 433.52L160.8 433.96V434.32L160.74 434.62L160.8 434.96V435.28L160.88 435.76L160.68 436.06L160.88 436.38L160.78 436.74V437.18L160.86 437.56L160.6 437.84L160.68 438.12L160.8 438.58L160.74 438.9L160.82 439.28L160.72 439.62V440L161.2 440.3L161.8 440.42L162 440.78L161.72 441.02L161 441.2H160.62L160.42 441.1H159.98H159.78L159.02 441L158.7 440.78L158.94 440.32L159.5 440.26L159.78 439.96V439.64L159.72 439.14L159.8 438.9L159.9 438.48V438.16L159.72 437.74L159.84 437.36V437.02V436.7L159.92 436.4L159.76 436L159.86 435.68L159.92 435.28L159.84 434.92V434.64V434.24L159.9 433.94L160 433.54L159.76 433.12L159.94 432.64L160.02 432.34L159.72 432.02L159.9 431.66V431.26L159.68 430.88L159.84 430.54L159.72 430.26V429.96L159.9 429.48L159.82 429.12L160 428.9V428L159.76 427.62L159.62 427.34L159.48 426.64L159.64 426.36L160.1 426.2L160.52 426.76L160.62 427.1L160.9 427.36V427.72V428.04L161 428.8L160.86 429.2L160.76 429.56L160.96 429.8V430.16V430.56L160.76 430.94L160.98 431.2L160.72 431.54L160.86 431.9V432.28L161.16 432.58H161.52H162.06H162.18H162.78L163.2 432.64L163.36 432.72L163.84 432.64L163.98 432.72H164.64H164.76L165.14 432.62L165.7 432.72L166.08 432.64H166.16H166.56L166.88 432.56H167.5H167.78L168.78 432.62L169.12 432.24L169.22 431.96L169.16 431.5V431.24L169.3 431L169.18 430.56V430.28L169.26 429.92L169.12 429.58V429.22V428.9L169.3 428.22V427.74L169.1 427.34L168.92 426.66L169.12 426.38H169.6L169.86 426.86L169.96 427.24V427.52L170.2 427.9V428.24V428.9L170.04 429.34L169.94 429.64L170.18 429.96V430.46L170.08 430.76L170 431V431.38V431.74V432.06L169.88 432.52L170 432.76L169.82 433.24L169.94 433.5V433.84V434.26V434.52L170 434.9L170.06 435.24V435.7L170.28 435.98V436.42L170.2 436.8L170.02 437.18L170.2 437.54L170.14 437.84V438.22L170.24 438.52L170.16 438.92V439.26L170.26 439.54L170.36 439.98V440.36H171.16L171.2 440.74Z" fill="white"/>
</g>
<defs>
<clipPath id="clip0_1736_912">
<rect width="120" height="30" fill="white" transform="translate(105 418)"/>
</clipPath>
</defs>
</svg>
