<svg width="90" height="110" viewBox="0 0 90 110" fill="none" xmlns="http://www.w3.org/2000/svg">
<path d="M79.88 70.77C74.5228 78.104 68.0116 84.5206 60.6 89.77C52.2 95.41 43.69 98.29 35.3 98.29C20.39 98.29 11 88.52 10.12 73.49C10 70.86 10 67.49 10 63.34C10 47.69 10.38 30.28 11 11L20.39 11.37C19.64 30.78 19.27 48.57 19.27 64.85C19.27 71.74 19.64 76.37 20.52 78.85C21.9 83.49 25.15 86.62 30.16 88.25C31.862 88.7793 33.6378 89.0325 35.42 89C42.19 89 49.2 86.37 56.34 81.23C62.4553 76.7406 67.8506 71.3453 72.34 65.23L79.88 70.77ZM53.21 36.46C51.33 33.33 48.32 28.69 44.44 22.56L49.95 19.05C53.83 25.05 56.71 29.82 58.72 33.2L53.21 36.46ZM66.61 30.82C63.9789 26.0344 61.0914 21.3943 57.96 16.92L63.35 13.29C66.73 18.17 69.73 22.93 72.35 27.57L66.61 30.82Z" fill="black"/>
<path d="M42.1101 33.13C40.1968 31.41 37.9168 29.0766 35.2701 26.13C34.8901 25.68 34.2701 25 33.4901 24.13C33.2989 23.8743 33.0592 23.6588 32.7847 23.4958C32.5101 23.3328 32.2061 23.2255 31.8901 23.18C31.7279 23.1926 31.5703 23.2392 31.4273 23.3167C31.2843 23.3942 31.1592 23.501 31.0601 23.63L30.4901 24.33C28.8471 26.3637 27.091 28.3034 25.2301 30.14L23.8801 28.72C25.6907 26.9445 27.4033 25.0717 29.0101 23.11C29.1904 22.8566 29.384 22.6129 29.5901 22.38C29.8663 22.0335 30.2157 21.7524 30.6134 21.557C31.0111 21.3617 31.4471 21.2568 31.8901 21.25C32.4902 21.2854 33.0758 21.4493 33.6071 21.7305C34.1385 22.0117 34.6033 22.4037 34.9701 22.88L39.0801 27.39C40.6501 29.07 42.0801 30.52 43.4101 31.7L42.1101 33.13Z" fill="black"/>
<path d="M36.4501 48.3001C35.8138 48.6148 35.1425 48.8531 34.4501 49.01L34.1801 47.5501C35.1086 47.3713 35.9883 46.9962 36.7601 46.45C37.5321 45.9336 38.1587 45.2278 38.5801 44.4001C38.9217 43.7027 39.0996 42.9366 39.1001 42.16C39.1089 41.5896 38.9906 41.0244 38.7536 40.5055C38.5166 39.9866 38.167 39.5269 37.7301 39.16C36.8331 38.4241 35.7356 37.9747 34.5801 37.8701C34.039 40.3939 33.0464 42.7992 31.6501 44.9701C31.357 45.436 31.0223 45.8745 30.6501 46.2801C30.3536 46.6241 29.989 46.9029 29.5794 47.0991C29.1698 47.2953 28.724 47.4046 28.2701 47.42C27.6844 47.41 27.117 47.2139 26.6501 46.8601C26.2434 46.5789 25.9217 46.1915 25.7201 45.7401C25.4484 45.1901 25.3113 44.5834 25.3201 43.9701C25.3529 42.7629 25.6973 41.5847 26.3201 40.5501C27.3265 38.7312 29.0014 37.3755 30.9901 36.7701C31.8676 36.4809 32.7862 36.3357 33.7101 36.3401C34.6459 36.3301 35.5763 36.4823 36.4601 36.79C37.6307 37.1252 38.6633 37.8264 39.4065 38.7909C40.1497 39.7555 40.5645 40.9327 40.5901 42.1501C40.5943 42.4851 40.5675 42.8199 40.5101 43.1501C40.3374 44.2925 39.8743 45.3715 39.1652 46.2837C38.4561 47.1959 37.5246 47.9109 36.4601 48.3601M27.6001 41.36C27.092 42.1535 26.8054 43.0685 26.7701 44.01C26.7426 44.3345 26.7947 44.6608 26.9219 44.9605C27.0491 45.2603 27.2476 45.5244 27.5001 45.73C27.7095 45.9074 27.9758 46.0032 28.2501 46.0001C28.8901 46.0001 29.6001 45.44 30.3401 44.32C31.6448 42.375 32.5678 40.1998 33.0601 37.91C31.9309 37.97 30.836 38.3188 29.8801 38.9228C28.9241 39.5268 28.1391 40.366 27.6001 41.36Z" fill="black"/>
<path d="M52.75 60.5001C52.1093 61.3893 51.1485 61.9952 50.07 62.1901C49.6156 62.2797 49.1532 62.3233 48.69 62.32C45.53 62.32 43.94 60.65 43.94 57.32C43.94 57.01 43.94 56.69 43.99 56.32C43.2684 56.2841 42.5597 56.1146 41.9 55.82C41.5681 55.6874 41.2824 55.4604 41.078 55.1672C40.8736 54.874 40.7596 54.5273 40.75 54.17C40.7842 53.5935 41.0341 53.0509 41.45 52.6501L42.53 53.6501C42.3591 53.7933 42.2514 53.9981 42.23 54.2201C42.23 54.3901 42.51 54.5401 43.08 54.6901C43.4248 54.7795 43.7758 54.8429 44.13 54.88C44.24 54.01 44.43 52.8801 44.7 51.5001C43.6873 51.2837 42.7261 50.8727 41.87 50.29L42.74 49.11C43.4274 49.5651 44.1939 49.8873 45 50.0601L45.67 46.54L47.15 46.79L46.46 50.3401C47.1597 50.4313 47.8644 50.4781 48.57 50.48C48.9 50.48 49.24 50.48 49.57 50.48L49.72 51.9401C49.3414 51.9811 48.9608 52.0011 48.58 52.0001C47.7797 51.9956 46.9809 51.9321 46.19 51.8101C45.96 53.0801 45.77 54.1101 45.66 54.9401C46.9744 54.9102 48.2863 54.81 49.59 54.64L49.78 56.1C48.3567 56.2811 46.9246 56.3846 45.49 56.41C45.49 56.75 45.49 57.07 45.49 57.36C45.49 59.75 46.38 60.85 48.72 60.85C49.1027 60.8521 49.4847 60.8152 49.86 60.7401C50.2236 60.6734 50.5702 60.5347 50.8793 60.332C51.1884 60.1294 51.4539 59.8669 51.66 59.5601C52.074 58.9355 52.2868 58.1992 52.27 57.45C52.2645 56.9074 52.1803 56.3685 52.02 55.85L53.43 55.4001C53.6529 56.0606 53.7677 56.7529 53.77 57.45C53.7876 58.5592 53.4358 59.6428 52.77 60.5301" fill="black"/>
<path d="M74.8601 34.07C72.8601 32.2367 70.4501 29.7734 67.6301 26.68C67.2301 26.21 66.6301 25.49 65.7501 24.56C65.5489 24.2895 65.2958 24.0618 65.0056 23.8901C64.7155 23.7184 64.3941 23.6062 64.0601 23.56C63.8882 23.575 63.7213 23.6253 63.5699 23.7079C63.4184 23.7906 63.2857 23.9036 63.1801 24.04L62.5801 24.78C60.8357 26.9258 58.9763 28.9755 57.0101 30.92L55.5901 29.41C57.5069 27.5369 59.3165 25.5571 61.0101 23.48C61.1501 23.29 61.3301 23.06 61.6201 22.71C61.917 22.3475 62.2887 22.0535 62.7099 21.8481C63.1311 21.6427 63.5916 21.5308 64.0601 21.52C64.6935 21.5566 65.3116 21.7292 65.8724 22.026C66.4332 22.3228 66.9236 22.7369 67.3101 23.24L71.6601 28.01C73.3301 29.78 74.8601 31.32 76.2401 32.56L74.8601 34.07Z" fill="black"/>
<path d="M68.97 49.9702C68.2864 50.3064 67.5644 50.5582 66.82 50.7202L66.53 49.1702C67.5202 48.977 68.4578 48.5747 69.28 47.9902C70.1195 47.439 70.8071 46.686 71.28 45.8002C71.6411 45.0515 71.829 44.2313 71.83 43.4002C71.8446 42.7853 71.721 42.175 71.4683 41.6142C71.2156 41.0535 70.8403 40.5565 70.37 40.1601C69.4068 39.3739 68.2288 38.8964 66.99 38.7902C66.419 41.4853 65.3618 44.054 63.87 46.3702C63.5458 46.866 63.1812 47.3342 62.78 47.7702C62.4624 48.1387 62.0718 48.4374 61.6329 48.6474C61.194 48.8574 60.7163 48.9741 60.23 48.9902C59.6038 48.9815 58.9971 48.7711 58.5 48.3902C58.0666 48.0855 57.7215 47.6715 57.5 47.1902C57.2112 46.6063 57.0672 45.9615 57.08 45.3102C57.1211 44.0179 57.493 42.7577 58.16 41.6502C59.2407 39.7154 61.0352 38.2798 63.16 37.6502C64.095 37.338 65.0743 37.1793 66.06 37.1802C67.081 37.167 68.0963 37.3328 69.06 37.6702C70.3127 38.027 71.4179 38.7761 72.2134 39.8075C73.0089 40.8388 73.4529 42.098 73.48 43.4002C73.4764 43.7354 73.4463 44.0697 73.39 44.4002C73.2014 45.6201 72.7048 46.7719 71.9471 47.7465C71.1895 48.7211 70.1958 49.4865 69.06 49.9702M59.59 42.4502C59.0453 43.3005 58.738 44.281 58.7 45.2902C58.6696 45.6373 58.7248 45.9865 58.8608 46.3073C58.9968 46.6281 59.2094 46.9106 59.48 47.1302C59.7033 47.3197 59.9872 47.4226 60.28 47.4202C60.97 47.4202 61.72 46.8202 62.52 45.6202C63.9126 43.5379 64.8967 41.2099 65.42 38.7602C64.2135 38.8241 63.0437 39.1971 62.0228 39.8432C61.0019 40.4894 60.1642 41.3871 59.59 42.4502Z" fill="black"/>
<path d="M55.4101 77.7401C53.8367 76.3068 51.9501 74.3768 49.7501 71.9501C49.4401 71.5701 48.9401 71.0101 48.2701 70.2901C48.1131 70.0778 47.9156 69.8987 47.6891 69.7632C47.4625 69.6276 47.2114 69.5382 46.9501 69.5002C46.8161 69.5122 46.6859 69.5512 46.5674 69.6148C46.4488 69.6784 46.3443 69.7652 46.2601 69.8701L45.7801 70.4501C44.4193 72.1352 42.9671 73.7443 41.4301 75.2701L40.3101 74.0901C41.8089 72.6173 43.2276 71.065 44.5601 69.4402C44.7093 69.2318 44.8695 69.0315 45.0401 68.8401C45.2696 68.5526 45.5599 68.3192 45.89 68.1567C46.2202 67.9942 46.5821 67.9066 46.9501 67.9001C47.4466 67.931 47.9309 68.0674 48.3706 68.3001C48.8104 68.5329 49.1954 68.8568 49.5001 69.2502L52.9001 72.9901C54.2101 74.3801 55.4101 75.5801 56.4901 76.5501L55.4101 77.7401Z" fill="black"/>
</svg>
